(kicad_pcb
	(version 20240108)
	(generator "pcbnew")
	(generator_version "8.0")
	(general
		(thickness 1.58)
		(legacy_teardrops no)
	)
	(paper "A5")
	(title_block
		(title "Amega32 Uart Adapter")
		(date "2024-09-14")
		(rev "1.3")
	)
	(layers
		(0 "F.Cu" signal)
		(31 "B.Cu" signal)
		(32 "B.Adhes" user "B.Adhesive")
		(33 "F.Adhes" user "F.Adhesive")
		(34 "B.Paste" user)
		(35 "F.Paste" user)
		(36 "B.SilkS" user "B.Silkscreen")
		(37 "F.SilkS" user "F.Silkscreen")
		(38 "B.Mask" user)
		(39 "F.Mask" user)
		(40 "Dwgs.User" user "User.Drawings")
		(41 "Cmts.User" user "User.Comments")
		(42 "Eco1.User" user "User.Eco1")
		(43 "Eco2.User" user "User.Eco2")
		(44 "Edge.Cuts" user)
		(45 "Margin" user)
		(46 "B.CrtYd" user "B.Courtyard")
		(47 "F.CrtYd" user "F.Courtyard")
		(48 "B.Fab" user)
		(49 "F.Fab" user)
		(50 "User.1" user)
		(51 "User.2" user)
		(52 "User.3" user)
		(53 "User.4" user)
		(54 "User.5" user)
		(55 "User.6" user)
		(56 "User.7" user)
		(57 "User.8" user)
		(58 "User.9" user)
	)
	(setup
		(stackup
			(layer "F.Cu"
				(type "copper")
				(thickness 0.035)
			)
			(layer "dielectric 1"
				(type "core")
				(thickness 1.51)
				(material "FR4")
				(epsilon_r 4.5)
				(loss_tangent 0.02)
			)
			(layer "B.Cu"
				(type "copper")
				(thickness 0.035)
			)
			(copper_finish "None")
			(dielectric_constraints no)
		)
		(pad_to_mask_clearance 0)
		(allow_soldermask_bridges_in_footprints no)
		(aux_axis_origin 98 82)
		(pcbplotparams
			(layerselection 0x00010fc_ffffffff)
			(plot_on_all_layers_selection 0x0000000_00000000)
			(disableapertmacros no)
			(usegerberextensions no)
			(usegerberattributes yes)
			(usegerberadvancedattributes yes)
			(creategerberjobfile yes)
			(dashed_line_dash_ratio 12.000000)
			(dashed_line_gap_ratio 3.000000)
			(svgprecision 4)
			(plotframeref no)
			(viasonmask no)
			(mode 1)
			(useauxorigin yes)
			(hpglpennumber 1)
			(hpglpenspeed 20)
			(hpglpendiameter 15.000000)
			(pdf_front_fp_property_popups yes)
			(pdf_back_fp_property_popups yes)
			(dxfpolygonmode yes)
			(dxfimperialunits yes)
			(dxfusepcbnewfont yes)
			(psnegative no)
			(psa4output no)
			(plotreference yes)
			(plotvalue yes)
			(plotfptext yes)
			(plotinvisibletext no)
			(sketchpadsonfab no)
			(subtractmaskfromsilk no)
			(outputformat 1)
			(mirror no)
			(drillshape 0)
			(scaleselection 1)
			(outputdirectory "/mnt/ramdisk")
		)
	)
	(net 0 "")
	(net 1 "Net-(J1-VBUS)")
	(net 2 "GND")
	(net 3 "Net-(U1-V3)")
	(net 4 "+5V")
	(net 5 "Net-(J1-D-)")
	(net 6 "Net-(J1-D+)")
	(net 7 "unconnected-(J1-ID-Pad4)")
	(net 8 "unconnected-(J2-Pin_2-Pad2)")
	(net 9 "/RXD")
	(net 10 "/TXD")
	(net 11 "unconnected-(J3-Pin_2-Pad2)")
	(net 12 "unconnected-(U1-~{RTS}-Pad4)")
	(net 13 "unconnected-(U1-~{CTS}-Pad5)")
	(net 14 "Net-(D1-K)")
	(net 15 "unconnected-(U1-TNOW-Pad6)")
	(footprint "Diode_SMD:D_SOD-123"
		(layer "F.Cu")
		(uuid "26e51749-1408-411a-86ea-66606629cd97")
		(at 108.585 65.7225 -90)
		(descr "SOD-123")
		(tags "SOD-123")
		(property "Reference" "D1"
			(at 0 -2 -90)
			(layer "F.SilkS")
			(uuid "85e8c081-fbf3-4b81-8e12-957c1c8b9e42")
			(effects
				(font
					(size 1 1)
					(thickness 0.15)
				)
			)
		)
		(property "Value" "BAT41"
			(at 0 2.1 -90)
			(layer "F.Fab")
			(uuid "44c5329f-ec1a-48f5-9c11-534f623960e6")
			(effects
				(font
					(size 1 1)
					(thickness 0.15)
				)
			)
		)
		(property "Footprint" "Diode_SMD:D_SOD-123"
			(at 0 0 -90)
			(layer "F.Fab")
			(hide yes)
			(uuid "18c10f9d-d2b5-43a4-b5c8-afbb372bf8a1")
			(effects
				(font
					(size 1.27 1.27)
					(thickness 0.15)
				)
			)
		)
		(property "Datasheet" "http://www.vishay.com/docs/85659/bat41.pdf"
			(at 0 0 -90)
			(layer "F.Fab")
			(hide yes)
			(uuid "8b5257fc-7178-4f39-a4fd-7656326c6ba5")
			(effects
				(font
					(size 1.27 1.27)
					(thickness 0.15)
				)
			)
		)
		(property "Description" ""
			(at 0 0 -90)
			(layer "F.Fab")
			(hide yes)
			(uuid "5c5a930e-b496-4994-8614-ba0b8a0b5ed4")
			(effects
				(font
					(size 1.27 1.27)
					(thickness 0.15)
				)
			)
		)
		(property "LCSC" "C222251"
			(at 42.8625 174.3075 0)
			(layer "F.Fab")
			(hide yes)
			(uuid "c3137608-59a0-4454-8d33-19efac68027c")
			(effects
				(font
					(size 1 1)
					(thickness 0.15)
				)
			)
		)
		(property ki_fp_filters "D*DO?35*")
		(path "/b2b50538-2ba3-457e-b715-276585009ce4")
		(sheetname "Root")
		(sheetfile "Amiga_MegaDriveGamePadAdapter_RS232.kicad_sch")
		(attr smd)
		(fp_line
			(start -2.36 1)
			(end 1.65 1)
			(stroke
				(width 0.12)
				(type solid)
			)
			(layer "F.SilkS")
			(uuid "bec90cad-6b6a-4b9e-95bc-058bb22ff261")
		)
		(fp_line
			(start -2.36 -1)
			(end -2.36 1)
			(stroke
				(width 0.12)
				(type solid)
			)
			(layer "F.SilkS")
			(uuid "225c561e-9e5f-43d2-9adc-70745236613d")
		)
		(fp_line
			(start -2.36 -1)
			(end 1.65 -1)
			(stroke
				(width 0.12)
				(type solid)
			)
			(layer "F.SilkS")
			(uuid "1c9a3ee4-55bd-46d8-8c8f-b87ede30fe71")
		)
		(fp_line
			(start 2.35 1.15)
			(end -2.35 1.15)
			(stroke
				(width 0.05)
				(type solid)
			)
			(layer "F.CrtYd")
			(uuid "39293f1b-6c7c-4606-8c94-c2f4ffcc4ab1")
		)
		(fp_line
			(start -2.35 -1.15)
			(end -2.35 1.15)
			(stroke
				(width 0.05)
				(type solid)
			)
			(layer "F.CrtYd")
			(uuid "9f7f2c0c-68ea-41cb-91d3-d3360748ef8d")
		)
		(fp_line
			(start -2.35 -1.15)
			(end 2.35 -1.15)
			(stroke
				(width 0.05)
				(type solid)
			)
			(layer "F.CrtYd")
			(uuid "d4685b40-d9dd-4d0d-8df8-648a0f12b4c0")
		)
		(fp_line
			(start 2.35 -1.15)
			(end 2.35 1.15)
			(stroke
				(width 0.05)
				(type solid)
			)
			(layer "F.CrtYd")
			(uuid "7a20a0ae-e07b-4aba-9e87-7baade72ae26")
		)
		(fp_line
			(start -1.4 0.9)
			(end -1.4 -0.9)
			(stroke
				(width 0.1)
				(type solid)
			)
			(layer "F.Fab")
			(uuid "952c2edc-aad0-414a-834b-d3f7b4961cfe")
		)
		(fp_line
			(start 1.4 0.9)
			(end -1.4 0.9)
			(stroke
				(width 0.1)
				(type solid)
			)
			(layer "F.Fab")
			(uuid "fea36a1a-0bdd-49f5-9ad0-605700a30803")
		)
		(fp_line
			(start 0.25 0.4)
			(end -0.35 0)
			(stroke
				(width 0.1)
				(type solid)
			)
			(layer "F.Fab")
			(uuid "2aeb6ded-47b3-4cb0-a3a1-4ef4a9d690fe")
		)
		(fp_line
			(start -0.75 0)
			(end -0.35 0)
			(stroke
				(width 0.1)
				(type solid)
			)
			(layer "F.Fab")
			(uuid "f87c6d78-c737-4f18-b6ec-0fe48f910cd4")
		)
		(fp_line
			(start -0.35 0)
			(end -0.35 0.55)
			(stroke
				(width 0.1)
				(type solid)
			)
			(layer "F.Fab")
			(uuid "9da73d82-9a02-4934-b8b4-53a3314e0503")
		)
		(fp_line
			(start -0.35 0)
			(end 0.25 -0.4)
			(stroke
				(width 0.1)
				(type solid)
			)
			(layer "F.Fab")
			(uuid "1d7c25b1-6916-40e9-92f3-a68954bb5094")
		)
		(fp_line
			(start -0.35 0)
			(end -0.35 -0.55)
			(stroke
				(width 0.1)
				(type solid)
			)
			(layer "F.Fab")
			(uuid "4a6b6d48-3e1e-41d8-840c-b1ff1dd786a8")
		)
		(fp_line
			(start 0.25 0)
			(end 0.75 0)
			(stroke
				(width 0.1)
				(type solid)
			)
			(layer "F.Fab")
			(uuid "c3bba27c-de75-48d9-b476-c2b56ddc9985")
		)
		(fp_line
			(start 0.25 -0.4)
			(end 0.25 0.4)
			(stroke
				(width 0.1)
				(type solid)
			)
			(layer "F.Fab")
			(uuid "a96d4f00-c3f4-49b2-9eef-bccb67865141")
		)
		(fp_line
			(start -1.4 -0.9)
			(end 1.4 -0.9)
			(stroke
				(width 0.1)
				(type solid)
			)
			(layer "F.Fab")
			(uuid "7ba55155-60ff-480f-8467-e9a3a3f51eaa")
		)
		(fp_line
			(start 1.4 -0.9)
			(end 1.4 0.9)
			(stroke
				(width 0.1)
				(type solid)
			)
			(layer "F.Fab")
			(uuid "26c43301-ea57-4651-aa1d-b1a49e41555f")
		)
		(fp_text user "${REFERENCE}"
			(at 0 -2 -90)
			(layer "F.Fab")
			(uuid "09577515-895c-47ca-9808-596fba7f137d")
			(effects
				(font
					(size 1 1)
					(thickness 0.15)
				)
			)
		)
		(pad "1" smd roundrect
			(at -1.65 0 270)
			(size 0.9 1.2)
			(layers "F.Cu" "F.Paste" "F.Mask")
			(roundrect_rratio 0.25)
			(net 14 "Net-(D1-K)")
			(pinfunction "K")
			(pintype "passive")
			(uuid "1d84d630-5d53-469d-8339-77e5b4bdea71")
		)
		(pad "2" smd roundrect
			(at 1.65 0 270)
			(size 0.9 1.2)
			(layers "F.Cu" "F.Paste" "F.Mask")
			(roundrect_rratio 0.25)
			(net 4 "+5V")
			(pinfunction "A")
			(pintype "passive")
			(uuid "ed8a7886-f16c-4b33-98ac-dddd6c912a11")
		)
		(model "${KICAD6_3DMODEL_DIR}/Diode_SMD.3dshapes/D_SOD-123.wrl"
			(offset
				(xyz 0 0 0)
			)
			(scale
				(xyz 1 1 1)
			)
			(rotate
				(xyz 0 0 0)
			)
		)
	)
	(footprint "Capacitor_SMD:C_0805_2012Metric_Pad1.18x1.45mm_HandSolder"
		(layer "F.Cu")
		(uuid "599267b7-f4cb-4cb5-85d7-703088bc06eb")
		(at 101.9175 73.66 90)
		(descr "Capacitor SMD 0805 (2012 Metric), square (rectangular) end terminal, IPC_7351 nominal with elongated pad for handsoldering. (Body size source: IPC-SM-782 page 76, https://www.pcb-3d.com/wordpress/wp-content/uploads/ipc-sm-782a_amendment_1_and_2.pdf, https://docs.google.com/spreadsheets/d/1BsfQQcO9C6DZCsRaXUlFlo91Tg2WpOkGARC1WS5S8t0/edit?usp=sharing), generated with kicad-footprint-generator")
		(tags "capacitor handsolder")
		(property "Reference" "C1"
			(at 0 1.905 90)
			(layer "F.SilkS")
			(uuid "7c5a301c-996a-4dcb-b63b-513148676890")
			(effects
				(font
					(size 1 1)
					(thickness 0.15)
				)
			)
		)
		(property "Value" "10n"
			(at 0 1.68 90)
			(layer "F.Fab")
			(uuid "5ba9916e-01e4-4681-9379-befe1aefd6f3")
			(effects
				(font
					(size 1 1)
					(thickness 0.15)
				)
			)
		)
		(property "Footprint" "Capacitor_SMD:C_0805_2012Metric_Pad1.18x1.45mm_HandSolder"
			(at 0 0 90)
			(layer "F.Fab")
			(hide yes)
			(uuid "dbbcb9a2-b092-41b8-90a0-f1b6b64ed1c2")
			(effects
				(font
					(size 1.27 1.27)
					(thickness 0.15)
				)
			)
		)
		(property "Datasheet" ""
			(at 0 0 90)
			(layer "F.Fab")
			(hide yes)
			(uuid "36a9401b-e881-437a-b27e-9aea84c1a0ce")
			(effects
				(font
					(size 1.27 1.27)
					(thickness 0.15)
				)
			)
		)
		(property "Description" ""
			(at 0 0 90)
			(layer "F.Fab")
			(hide yes)
			(uuid "9bf6c29c-c229-4c86-9bae-4b04d929c2e2")
			(effects
				(font
					(size 1.27 1.27)
					(thickness 0.15)
				)
			)
		)
		(property "LCSC" "C1710"
			(at 175.5775 -28.2575 0)
			(layer "F.Fab")
			(hide yes)
			(uuid "8483c0b7-2591-4f79-8627-3f49509fe0f8")
			(effects
				(font
					(size 1 1)
					(thickness 0.15)
				)
			)
		)
		(property ki_fp_filters "C_*")
		(path "/89f6ecb4-6a2d-4969-9355-b1b8213d14b8")
		(sheetname "Root")
		(sheetfile "Amiga_MegaDriveGamePadAdapter_RS232.kicad_sch")
		(attr smd)
		(fp_line
			(start -0.261252 -0.735)
			(end 0.261252 -0.735)
			(stroke
				(width 0.12)
				(type solid)
			)
			(layer "F.SilkS")
			(uuid "197e72d0-ea6c-4a6d-abb5-26a6f971d747")
		)
		(fp_line
			(start -0.261252 0.735)
			(end 0.261252 0.735)
			(stroke
				(width 0.12)
				(type solid)
			)
			(layer "F.SilkS")
			(uuid "3366aa3f-3d73-4448-abb5-8364ff3e5bab")
		)
		(fp_line
			(start 1.88 -0.98)
			(end 1.88 0.98)
			(stroke
				(width 0.05)
				(type solid)
			)
			(layer "F.CrtYd")
			(uuid "7305c447-276b-454d-bf95-bb5be5d9f44f")
		)
		(fp_line
			(start -1.88 -0.98)
			(end 1.88 -0.98)
			(stroke
				(width 0.05)
				(type solid)
			)
			(layer "F.CrtYd")
			(uuid "5f152c19-e39e-4ad9-9062-a67eae692eed")
		)
		(fp_line
			(start 1.88 0.98)
			(end -1.88 0.98)
			(stroke
				(width 0.05)
				(type solid)
			)
			(layer "F.CrtYd")
			(uuid "8980cc9b-31aa-40c3-809a-88b3deb68a45")
		)
		(fp_line
			(start -1.88 0.98)
			(end -1.88 -0.98)
			(stroke
				(width 0.05)
				(type solid)
			)
			(layer "F.CrtYd")
			(uuid "334b9e53-e551-4a97-82cf-bb71326a7b09")
		)
		(fp_line
			(start 1 -0.625)
			(end 1 0.625)
			(stroke
				(width 0.1)
				(type solid)
			)
			(layer "F.Fab")
			(uuid "a7957f95-ab2e-4e58-8b83-4cf6b2e6aa2c")
		)
		(fp_line
			(start -1 -0.625)
			(end 1 -0.625)
			(stroke
				(width 0.1)
				(type solid)
			)
			(layer "F.Fab")
			(uuid "ab164677-f551-4a03-b39d-445b6efe1d2d")
		)
		(fp_line
			(start 1 0.625)
			(end -1 0.625)
			(stroke
				(width 0.1)
				(type solid)
			)
			(layer "F.Fab")
			(uuid "194d028f-9a07-4980-b0d7-dfe3e1f101d2")
		)
		(fp_line
			(start -1 0.625)
			(end -1 -0.625)
			(stroke
				(width 0.1)
				(type solid)
			)
			(layer "F.Fab")
			(uuid "adc4dfde-5213-4c64-87c3-437a144ca0f5")
		)
		(fp_text user "${REFERENCE}"
			(at 0 0 90)
			(layer "F.Fab")
			(uuid "24a3780c-cdf8-467d-a64a-1bcd48b25450")
			(effects
				(font
					(size 0.5 0.5)
					(thickness 0.08)
				)
			)
		)
		(pad "1" smd roundrect
			(at -1.0375 0 90)
			(size 1.175 1.45)
			(layers "F.Cu" "F.Paste" "F.Mask")
			(roundrect_rratio 0.2127659574)
			(net 1 "Net-(J1-VBUS)")
			(pintype "passive")
			(uuid "2205c96b-d38f-4e73-b870-8253973c82c2")
		)
		(pad "2" smd roundrect
			(at 1.0375 0 90)
			(size 1.175 1.45)
			(layers "F.Cu" "F.Paste" "F.Mask")
			(roundrect_rratio 0.2127659574)
			(net 2 "GND")
			(pintype "passive")
			(uuid "7f7de594-ec83-4839-abeb-95191e7a9f5f")
		)
		(model "${KICAD6_3DMODEL_DIR}/Capacitor_SMD.3dshapes/C_0805_2012Metric.wrl"
			(offset
				(xyz 0 0 0)
			)
			(scale
				(xyz 1 1 1)
			)
			(rotate
				(xyz 0 0 0)
			)
		)
	)
	(footprint "Connector_PinSocket_2.00mm:PinSocket_1x05_P2.00mm_Vertical"
		(layer "F.Cu")
		(uuid "5d855cf9-91a4-42d0-8154-2a3a6ff471e5")
		(at 109.22 61.595 -90)
		(descr "Through hole straight socket strip, 1x05, 2.00mm pitch, single row (from Kicad 4.0.7), script generated")
		(tags "Through hole socket strip THT 1x05 2.00mm single row")
		(property "Reference" "J2"
			(at 0 -2.16 90)
			(layer "B.SilkS")
			(hide yes)
			(uuid "28d0c1fd-3a28-4212-ab85-6ecf9509eb5d")
			(effects
				(font
					(size 1 1)
					(thickness 0.15)
				)
			)
		)
		(property "Value" "Conn_01x05"
			(at 0 10.5 90)
			(layer "F.Fab")
			(uuid "4cdd8be7-4bb9-443e-9212-747e4ab7a560")
			(effects
				(font
					(size 1 1)
					(thickness 0.15)
				)
			)
		)
		(property "Footprint" "Connector_PinSocket_2.00mm:PinSocket_1x05_P2.00mm_Vertical"
			(at 0 0 -90)
			(layer "F.Fab")
			(hide yes)
			(uuid "990e3af4-2289-47bf-b98d-079d8018ac28")
			(effects
				(font
					(size 1.27 1.27)
					(thickness 0.15)
				)
			)
		)
		(property "Datasheet" ""
			(at 0 0 -90)
			(layer "F.Fab")
			(hide yes)
			(uuid "e59203dd-8c7b-4723-9e89-a45e2a1c15d8")
			(effects
				(font
					(size 1.27 1.27)
					(thickness 0.15)
				)
			)
		)
		(property "Description" ""
			(at 0 0 -90)
			(layer "F.Fab")
			(hide yes)
			(uuid "e3aa02e7-1e20-4b26-b7f2-c9cf5d2789a0")
			(effects
				(font
					(size 1.27 1.27)
					(thickness 0.15)
				)
			)
		)
		(property "LCSC" "C6098545"
			(at 47.625 170.815 0)
			(layer "F.Fab")
			(hide yes)
			(uuid "d3a10515-6710-40d9-88e4-61cbee58337c")
			(effects
				(font
					(size 1 1)
					(thickness 0.15)
				)
			)
		)
		(property ki_fp_filters "Connector*:*_1x??_*")
		(path "/93ad3237-f955-4173-9eea-01319bc4470b")
		(sheetname "Root")
		(sheetfile "Amiga_MegaDriveGamePadAdapter_RS232.kicad_sch")
		(attr through_hole)
		(fp_line
			(start -1.06 9.06)
			(end 1.06 9.06)
			(stroke
				(width 0.12)
				(type solid)
			)
			(layer "F.SilkS")
			(uuid "1d520668-b74a-43a4-b0d0-24e8f82912bf")
		)
		(fp_line
			(start -1.06 1)
			(end -1.06 9.06)
			(stroke
				(width 0.12)
				(type solid)
			)
			(layer "F.SilkS")
			(uuid "f7f3eb1b-2ca4-4826-8f04-f0095d2fb222")
		)
		(fp_line
			(start -1.06 1)
			(end 1.06 1)
			(stroke
				(width 0.12)
				(type solid)
			)
			(layer "F.SilkS")
			(uuid "79279304-648b-4f75-8fcf-0c21149be5c3")
		)
		(fp_line
			(start 1.06 1)
			(end 1.06 9.06)
			(stroke
				(width 0.12)
				(type solid)
			)
			(layer "F.SilkS")
			(uuid "fd36f698-7012-4dd6-be8e-367b5b1bec91")
		)
		(fp_line
			(start 0 -1.06)
			(end 1.06 -1.06)
			(stroke
				(width 0.12)
				(type solid)
			)
			(layer "F.SilkS")
			(uuid "5999ee2c-8308-4052-8918-b88f4078fb94")
		)
		(fp_line
			(start 1.06 -1.06)
			(end 1.06 0)
			(stroke
				(width 0.12)
				(type solid)
			)
			(layer "F.SilkS")
			(uuid "a21bc910-ac55-4bbf-9441-454d3896b1cd")
		)
		(fp_line
			(start -1.5 9.5)
			(end -1.5 -1.5)
			(stroke
				(width 0.05)
				(type solid)
			)
			(layer "F.CrtYd")
			(uuid "12ffd0be-5b49-4531-9650-721dffca68b2")
		)
		(fp_line
			(start 1.5 9.5)
			(end -1.5 9.5)
			(stroke
				(width 0.05)
				(type solid)
			)
			(layer "F.CrtYd")
			(uuid "0b646555-3ce9-4c33-a166-3e93e3429c9e")
		)
		(fp_line
			(start -1.5 -1.5)
			(end 1.5 -1.5)
			(stroke
				(width 0.05)
				(type solid)
			)
			(layer "F.CrtYd")
			(uuid "a5d626b3-ed2e-46c2-926d-2e499a37f9a1")
		)
		(fp_line
			(start 1.5 -1.5)
			(end 1.5 9.5)
			(stroke
				(width 0.05)
				(type solid)
			)
			(layer "F.CrtYd")
			(uuid "dc106702-4017-47cc-af28-77030b9fbaa1")
		)
		(fp_line
			(start -1 9)
			(end -1 -1)
			(stroke
				(width 0.1)
				(type solid)
			)
			(layer "F.Fab")
			(uuid "e4e36686-6760-4aa6-98f0-5b33461561ad")
		)
		(fp_line
			(start 1 9)
			(end -1 9)
			(stroke
				(width 0.1)
				(type solid)
			)
			(layer "F.Fab")
			(uuid "08f490b0-d683-4789-9407-4a549e8a8135")
		)
		(fp_line
			(start 1 -0.5)
			(end 1 9)
			(stroke
				(width 0.1)
				(type solid)
			)
			(layer "F.Fab")
			(uuid "d86b1e58-31de-4c4b-9e21-85f129c58c20")
		)
		(fp_line
			(start -1 -1)
			(end 0.5 -1)
			(stroke
				(width 0.1)
				(type solid)
			)
			(layer "F.Fab")
			(uuid "d3a93390-8feb-4232-aa68-839f727a9ecb")
		)
		(fp_line
			(start 0.5 -1)
			(end 1 -0.5)
			(stroke
				(width 0.1)
				(type solid)
			)
			(layer "F.Fab")
			(uuid "41fb0c8b-67bb-4faf-90cd-963d085a1ca1")
		)
		(fp_text user "${REFERENCE}"
			(at 0 4 0)
			(layer "F.Fab")
			(uuid "0407652e-fe85-4f0d-8a9b-8d140c997816")
			(effects
				(font
					(size 1 1)
					(thickness 0.15)
				)
			)
		)
		(pad "1" thru_hole rect
			(at 0 0 270)
			(size 1.35 1.35)
			(drill 0.8)
			(layers "*.Cu" "*.Mask")
			(remove_unused_layers no)
			(net 14 "Net-(D1-K)")
			(pinfunction "Pin_1")
			(pintype "passive")
			(uuid "f9150859-6070-4c85-bc30-91ad472af519")
		)
		(pad "2" thru_hole oval
			(at 0 2 270)
			(size 1.35 1.35)
			(drill 0.8)
			(layers "*.Cu" "*.Mask")
			(remove_unused_layers no)
			(net 8 "unconnected-(J2-Pin_2-Pad2)")
			(pinfunction "Pin_2")
			(pintype "passive+no_connect")
			(uuid "3e5212b1-77f7-4a8d-a24c-d96465441831")
		)
		(pad "3" thru_hole oval
			(at 0 4 270)
			(size 1.35 1.35)
			(drill 0.8)
			(layers "*.Cu" "*.Mask")
			(remove_unused_layers no)
			(net 9 "/RXD")
			(pinfunction "Pin_3")
			(pintype "passive")
			(uuid "a2ab8448-445d-4446-89f9-e21cffe83903")
		)
		(pad "4" thru_hole oval
			(at 0 6 270)
			(size 1.35 1.35)
			(drill 0.8)
			(layers "*.Cu" "*.Mask")
			(remove_unused_layers no)
			(net 10 "/TXD")
			(pinfunction "Pin_4")
			(pintype "passive")
			(uuid "ef975db1-5a4e-4c88-9dfc-d2c8ddda03aa")
		)
		(pad "5" thru_hole oval
			(at 0 8 270)
			(size 1.35 1.35)
			(drill 0.8)
			(layers "*.Cu" "*.Mask")
			(remove_unused_layers no)
			(net 2 "GND")
			(pinfunction "Pin_5")
			(pintype "passive")
			(uuid "669bddb3-af2a-488e-ac0f-4192497745ac")
		)
		(model "${KICAD6_3DMODEL_DIR}/Connector_PinSocket_2.00mm.3dshapes/PinSocket_1x05_P2.00mm_Vertical.wrl"
			(offset
				(xyz 0 0 0)
			)
			(scale
				(xyz 1 1 1)
			)
			(rotate
				(xyz 0 0 0)
			)
		)
	)
	(footprint "Inductor_SMD:L_0805_2012Metric_Pad1.05x1.20mm_HandSolder"
		(layer "F.Cu")
		(uuid "ad4ebc27-cda5-4bac-bf4d-bfd9a96ef20e")
		(at 100.0125 73.66 90)
		(descr "Inductor SMD 0805 (2012 Metric), square (rectangular) end terminal, IPC_7351 nominal with elongated pad for handsoldering. (Body size source: IPC-SM-782 page 80, https://www.pcb-3d.com/wordpress/wp-content/uploads/ipc-sm-782a_amendment_1_and_2.pdf), generated with kicad-footprint-generator")
		(tags "inductor handsolder")
		(property "Reference" "FB1"
			(at -2.8575 0 180)
			(layer "F.SilkS")
			(uuid "47cfd69b-c489-4b98-ac93-e9e8b16fdc51")
			(effects
				(font
					(size 1 1)
					(thickness 0.15)
				)
			)
		)
		(property "Value" "FerriteBead_Small"
			(at 0 1.55 90)
			(layer "F.Fab")
			(uuid "51c7a6c9-37e4-452e-ae4f-10dcc6c15d1e")
			(effects
				(font
					(size 1 1)
					(thickness 0.15)
				)
			)
		)
		(property "Footprint" "Inductor_SMD:L_0805_2012Metric_Pad1.05x1.20mm_HandSolder"
			(at 0 0 90)
			(layer "F.Fab")
			(hide yes)
			(uuid "59fbbbde-2888-49e0-824e-60d2de5200e1")
			(effects
				(font
					(size 1.27 1.27)
					(thickness 0.15)
				)
			)
		)
		(property "Datasheet" ""
			(at 0 0 90)
			(layer "F.Fab")
			(hide yes)
			(uuid "9b0ae630-ff6f-41ea-b2f0-d2605a33628b")
			(effects
				(font
					(size 1.27 1.27)
					(thickness 0.15)
				)
			)
		)
		(property "Description" ""
			(at 0 0 90)
			(layer "F.Fab")
			(hide yes)
			(uuid "163b8708-4de6-4199-8dc4-ae4854a5897e")
			(effects
				(font
					(size 1.27 1.27)
					(thickness 0.15)
				)
			)
		)
		(property "LCSC" "C21286"
			(at 173.6725 -26.3525 0)
			(layer "F.Fab")
			(hide yes)
			(uuid "f64bcc00-b2af-4ea2-b3eb-ebb85e4a9c02")
			(effects
				(font
					(size 1 1)
					(thickness 0.15)
				)
			)
		)
		(property ki_fp_filters "Inductor_* L_* *Ferrite*")
		(path "/fb2a9e7c-9c32-489e-b039-c13df85bfeb8")
		(sheetname "Root")
		(sheetfile "Amiga_MegaDriveGamePadAdapter_RS232.kicad_sch")
		(attr smd)
		(fp_line
			(start -0.410242 -0.56)
			(end 0.410242 -0.56)
			(stroke
				(width 0.12)
				(type solid)
			)
			(layer "F.SilkS")
			(uuid "713673fd-d48a-4174-ac94-f0a65e004ce5")
		)
		(fp_line
			(start -0.410242 0.56)
			(end 0.410242 0.56)
			(stroke
				(width 0.12)
				(type solid)
			)
			(layer "F.SilkS")
			(uuid "d2eb9253-b981-4506-a2ad-c754a1d04f60")
		)
		(fp_line
			(start 1.92 -0.85)
			(end 1.92 0.85)
			(stroke
				(width 0.05)
				(type solid)
			)
			(layer "F.CrtYd")
			(uuid "73bb9866-0a3c-4a0a-b1c3-410da223b21a")
		)
		(fp_line
			(start -1.92 -0.85)
			(end 1.92 -0.85)
			(stroke
				(width 0.05)
				(type solid)
			)
			(layer "F.CrtYd")
			(uuid "eb541ac5-48d6-4038-8a8e-33af3214c048")
		)
		(fp_line
			(start 1.92 0.85)
			(end -1.92 0.85)
			(stroke
				(width 0.05)
				(type solid)
			)
			(layer "F.CrtYd")
			(uuid "9d34604f-c9e8-4d1c-84f2-3db9ca1d8e4c")
		)
		(fp_line
			(start -1.92 0.85)
			(end -1.92 -0.85)
			(stroke
				(width 0.05)
				(type solid)
			)
			(layer "F.CrtYd")
			(uuid "9b35fbb8-0e76-4b38-ab68-a617919b2000")
		)
		(fp_line
			(start 1 -0.45)
			(end 1 0.45)
			(stroke
				(width 0.1)
				(type solid)
			)
			(layer "F.Fab")
			(uuid "930e677a-79bb-4e26-8204-96ecb1b13f44")
		)
		(fp_line
			(start -1 -0.45)
			(end 1 -0.45)
			(stroke
				(width 0.1)
				(type solid)
			)
			(layer "F.Fab")
			(uuid "df660bb9-372f-4771-948c-f3ff014fbd2b")
		)
		(fp_line
			(start 1 0.45)
			(end -1 0.45)
			(stroke
				(width 0.1)
				(type solid)
			)
			(layer "F.Fab")
			(uuid "94310ec1-214c-4b67-a77f-33ae97b3cccb")
		)
		(fp_line
			(start -1 0.45)
			(end -1 -0.45)
			(stroke
				(width 0.1)
				(type solid)
			)
			(layer "F.Fab")
			(uuid "642255f9-d713-4052-879e-e4296c9b6c13")
		)
		(fp_text user "${REFERENCE}"
			(at 0 0 90)
			(layer "F.Fab")
			(uuid "bc1b2f70-c964-4a20-9949-06577772bbdc")
			(effects
				(font
					(size 0.5 0.5)
					(thickness 0.08)
				)
			)
		)
		(pad "1" smd roundrect
			(at -1.15 0 90)
			(size 1.05 1.2)
			(layers "F.Cu" "F.Paste" "F.Mask")
			(roundrect_rratio 0.2380952381)
			(net 1 "Net-(J1-VBUS)")
			(pintype "passive")
			(uuid "a8449538-2197-4d59-b957-8fa5a559cf49")
		)
		(pad "2" smd roundrect
			(at 1.15 0 90)
			(size 1.05 1.2)
			(layers "F.Cu" "F.Paste" "F.Mask")
			(roundrect_rratio 0.2380952381)
			(net 4 "+5V")
			(pintype "passive")
			(uuid "a4030d07-79e8-4bb5-907a-20d9be8bf2c9")
		)
		(model "${KICAD6_3DMODEL_DIR}/Inductor_SMD.3dshapes/L_0805_2012Metric.wrl"
			(offset
				(xyz 0 0 0)
			)
			(scale
				(xyz 1 1 1)
			)
			(rotate
				(xyz 0 0 0)
			)
		)
	)
	(footprint "Package_SO:MSOP-10_3x3mm_P0.5mm"
		(layer "F.Cu")
		(uuid "adc81e6d-8dfe-48db-a51c-0a41da6c8580")
		(at 103.505 67.31 90)
		(descr "10-Lead Plastic Micro Small Outline Package (MS) [MSOP] (see Microchip Packaging Specification 00000049BS.pdf)")
		(tags "SSOP 0.5")
		(property "Reference" "U1"
			(at 0 2.54 90)
			(layer "F.SilkS")
			(uuid "f83b9dc4-12fe-45ce-8b58-62b01bd12daa")
			(effects
				(font
					(size 1 1)
					(thickness 0.15)
				)
			)
		)
		(property "Value" "CH340E"
			(at 0 2.6 90)
			(layer "F.Fab")
			(uuid "0170982b-0b26-4f04-9620-4fa2ececfbb7")
			(effects
				(font
					(size 1 1)
					(thickness 0.15)
				)
			)
		)
		(property "Footprint" "Package_SO:MSOP-10_3x3mm_P0.5mm"
			(at 0 0 90)
			(layer "F.Fab")
			(hide yes)
			(uuid "b700a20e-c262-4663-a2f0-b8976f5f1faa")
			(effects
				(font
					(size 1.27 1.27)
					(thickness 0.15)
				)
			)
		)
		(property "Datasheet" "https://www.mpja.com/download/35227cpdata.pdf"
			(at 0 0 90)
			(layer "F.Fab")
			(hide yes)
			(uuid "afedcbaa-9d5c-40c6-8d83-e4ce7eb643bb")
			(effects
				(font
					(size 1.27 1.27)
					(thickness 0.15)
				)
			)
		)
		(property "Description" ""
			(at 0 0 90)
			(layer "F.Fab")
			(hide yes)
			(uuid "e1dd64b4-4524-42ba-bb21-50d52c398888")
			(effects
				(font
					(size 1.27 1.27)
					(thickness 0.15)
				)
			)
		)
		(property "LCSC" "C99652"
			(at 170.815 -36.195 0)
			(layer "F.Fab")
			(hide yes)
			(uuid "62754eb2-94a0-4ae5-a5ea-c879e0d14788")
			(effects
				(font
					(size 1 1)
					(thickness 0.15)
				)
			)
		)
		(property ki_fp_filters "MSOP*3x3mm*P0.5mm*")
		(path "/4fbd79a0-0dfd-4951-bb44-22f10e18f0d4")
		(sheetname "Root")
		(sheetfile "Amiga_MegaDriveGamePadAdapter_RS232.kicad_sch")
		(attr smd)
		(fp_line
			(start 1.675 -1.675)
			(end 1.675 -1.375)
			(stroke
				(width 0.15)
				(type solid)
			)
			(layer "F.SilkS")
			(uuid "220816bc-59f2-4cf6-bc7f-4a117ad7699c")
		)
		(fp_line
			(start -1.675 -1.675)
			(end 1.675 -1.675)
			(stroke
				(width 0.15)
				(type solid)
			)
			(layer "F.SilkS")
			(uuid "8c7d0755-ce03-4a9b-b038-8ba8003d5cb9")
		)
		(fp_line
			(start -1.675 -1.675)
			(end -1.675 -1.45)
			(stroke
				(width 0.15)
				(type solid)
			)
			(layer "F.SilkS")
			(uuid "362783fa-685f-45d0-8fe1-8d93b70957b6")
		)
		(fp_line
			(start -1.675 -1.45)
			(end -2.9 -1.45)
			(stroke
				(width 0.15)
				(type solid)
			)
			(layer "F.SilkS")
			(uuid "c23922e4-a00c-4536-b355-a7077abb91f7")
		)
		(fp_line
			(start 1.675 1.675)
			(end 1.675 1.375)
			(stroke
				(width 0.15)
				(type solid)
			)
			(layer "F.SilkS")
			(uuid "a1f06be0-356a-471d-98af-09d4b3c52a72")
		)
		(fp_line
			(start -1.675 1.675)
			(end -1.675 1.375)
			(stroke
				(width 0.15)
				(type solid)
			)
			(layer "F.SilkS")
			(uuid "ae5195f7-626f-4e65-9015-cf0e61bdf25a")
		)
		(fp_line
			(start -1.675 1.675)
			(end 1.675 1.675)
			(stroke
				(width 0.15)
				(type solid)
			)
			(layer "F.SilkS")
			(uuid "bbae2954-681a-44b0-abf5-eaddf3811ca9")
		)
		(fp_line
			(start 3.15 -1.85)
			(end 3.15 1.85)
			(stroke
				(width 0.05)
				(type solid)
			)
			(layer "F.CrtYd")
			(uuid "2bc5dcce-dcbd-463a-9d28-f705eda3ea99")
		)
		(fp_line
			(start -3.15 -1.85)
			(end 3.15 -1.85)
			(stroke
				(width 0.05)
				(type solid)
			)
			(layer "F.CrtYd")
			(uuid "7cf4b80b-b87b-4c66-9282-cc7239553f3a")
		)
		(fp_line
			(start -3.15 -1.85)
			(end -3.15 1.85)
			(stroke
				(width 0.05)
				(type solid)
			)
			(layer "F.CrtYd")
			(uuid "6c54fa36-63ef-4b04-8884-1a48e185879a")
		)
		(fp_line
			(start -3.15 1.85)
			(end 3.15 1.85)
			(stroke
				(width 0.05)
				(type solid)
			)
			(layer "F.CrtYd")
			(uuid "214ca555-366a-4ae7-9e8d-a33de5364fb1")
		)
		(fp_line
			(start 1.5 -1.5)
			(end 1.5 1.5)
			(stroke
				(width 0.15)
				(type solid)
			)
			(layer "F.Fab")
			(uuid "772eff15-caf2-4352-82a1-82f68002fc5f")
		)
		(fp_line
			(start -0.5 -1.5)
			(end 1.5 -1.5)
			(stroke
				(width 0.15)
				(type solid)
			)
			(layer "F.Fab")
			(uuid "efbc6639-5296-4e6c-b4cb-9d0d09afbb5e")
		)
		(fp_line
			(start -1.5 -0.5)
			(end -0.5 -1.5)
			(stroke
				(width 0.15)
				(type solid)
			)
			(layer "F.Fab")
			(uuid "2c6d70ab-b881-41b1-a129-84fce66ddaf2")
		)
		(fp_line
			(start 1.5 1.5)
			(end -1.5 1.5)
			(stroke
				(width 0.15)
				(type solid)
			)
			(layer "F.Fab")
			(uuid "ec761035-0c26-402f-b0d8-1297441f6aea")
		)
		(fp_line
			(start -1.5 1.5)
			(end -1.5 -0.5)
			(stroke
				(width 0.15)
				(type solid)
			)
			(layer "F.Fab")
			(uuid "d3bb3b03-0e22-44b7-ab69-8b17f070919a")
		)
		(fp_text user "${REFERENCE}"
			(at 0 0 90)
			(layer "F.Fab")
			(uuid "36fc44d8-9067-4a6d-a68a-381cdcf9c672")
			(effects
				(font
					(size 0.6 0.6)
					(thickness 0.15)
				)
			)
		)
		(pad "1" smd rect
			(at -2.2 -1 90)
			(size 1.4 0.3)
			(layers "F.Cu" "F.Paste" "F.Mask")
			(net 6 "Net-(J1-D+)")
			(pinfunction "UD+")
			(pintype "bidirectional")
			(uuid "28acc9f5-82b0-4e08-b675-9919c397f73d")
		)
		(pad "2" smd rect
			(at -2.2 -0.5 90)
			(size 1.4 0.3)
			(layers "F.Cu" "F.Paste" "F.Mask")
			(net 5 "Net-(J1-D-)")
			(pinfunction "UD-")
			(pintype "bidirectional")
			(uuid "5d329f04-f32e-44f5-9623-9fc51a70db13")
		)
		(pad "3" smd rect
			(at -2.2 0 90)
			(size 1.4 0.3)
			(layers "F.Cu" "F.Paste" "F.Mask")
			(net 2 "GND")
			(pinfunction "GND")
			(pintype "power_in")
			(uuid "91674627-aa7b-43c4-b17b-b580b97b5187")
		)
		(pad "4" smd rect
			(at -2.2 0.5 90)
			(size 1.4 0.3)
			(layers "F.Cu" "F.Paste" "F.Mask")
			(net 12 "unconnected-(U1-~{RTS}-Pad4)")
			(pinfunction "~{RTS}")
			(pintype "output+no_connect")
			(uuid "03b37513-1171-4ecf-935d-9c7722d2d502")
		)
		(pad "5" smd rect
			(at -2.2 1 90)
			(size 1.4 0.3)
			(layers "F.Cu" "F.Paste" "F.Mask")
			(net 13 "unconnected-(U1-~{CTS}-Pad5)")
			(pinfunction "~{CTS}")
			(pintype "input+no_connect")
			(uuid "4d2f49f2-ade2-416a-b385-c784e0f5e153")
		)
		(pad "6" smd rect
			(at 2.2 1 90)
			(size 1.4 0.3)
			(layers "F.Cu" "F.Paste" "F.Mask")
			(net 15 "unconnected-(U1-TNOW-Pad6)")
			(pinfunction "TNOW")
			(pintype "output+no_connect")
			(uuid "abcd3237-8416-415a-bd29-e27b0fd6e39d")
		)
		(pad "7" smd rect
			(at 2.2 0.5 90)
			(size 1.4 0.3)
			(layers "F.Cu" "F.Paste" "F.Mask")
			(net 4 "+5V")
			(pinfunction "VCC")
			(pintype "power_in")
			(uuid "e353ba62-d438-48ce-9006-69bba000a649")
		)
		(pad "8" smd rect
			(at 2.2 0 90)
			(size 1.4 0.3)
			(layers "F.Cu" "F.Paste" "F.Mask")
			(net 10 "/TXD")
			(pinfunction "TXD")
			(pintype "output")
			(uuid "f71d0e46-65df-4e6c-aa79-a33266a18298")
		)
		(pad "9" smd rect
			(at 2.2 -0.5 90)
			(size 1.4 0.3)
			(layers "F.Cu" "F.Paste" "F.Mask")
			(net 9 "/RXD")
			(pinfunction "RXD")
			(pintype "input")
			(uuid "ab8bdfe5-ba86-44b8-b413-5c9287feb6d4")
		)
		(pad "10" smd rect
			(at 2.2 -1 90)
			(size 1.4 0.3)
			(layers "F.Cu" "F.Paste" "F.Mask")
			(net 3 "Net-(U1-V3)")
			(pinfunction "V3")
			(pintype "passive")
			(uuid "bdfecbba-2050-4f71-a5be-97df468f8e72")
		)
		(model "${KICAD6_3DMODEL_DIR}/Package_SO.3dshapes/MSOP-10_3x3mm_P0.5mm.wrl"
			(offset
				(xyz 0 0 0)
			)
			(scale
				(xyz 1 1 1)
			)
			(rotate
				(xyz 0 0 0)
			)
		)
	)
	(footprint "1.Eigenes:USB_Micro-B_Amphenol_10118194_Horizontal_JLC"
		(layer "F.Cu")
		(uuid "c73a100e-e102-41f3-b5e7-cb93bca87bf4")
		(at 103.505 79.375)
		(descr "USB Micro-B receptacle, horizontal, SMD, 10118194, https://cdn.amphenol-icc.com/media/wysiwyg/files/drawing/10118194.pdf")
		(tags "USB Micro B horizontal SMD")
		(property "Reference" "J1"
			(at 0 -3.5 0)
			(layer "F.SilkS")
			(uuid "17ad2c4c-2971-4d5f-933a-60bef4b34e42")
			(effects
				(font
					(size 1 1)
					(thickness 0.15)
				)
			)
		)
		(property "Value" "USB_B_Micro"
			(at 0 4.75 0)
			(layer "F.Fab")
			(uuid "dda5db01-2118-4449-a2b8-c2f3e0e82138")
			(effects
				(font
					(size 1 1)
					(thickness 0.15)
				)
			)
		)
		(property "Footprint" "1.Eigenes:USB_Micro-B_Amphenol_10118194_Horizontal_JLC"
			(at 0 0 0)
			(layer "F.Fab")
			(hide yes)
			(uuid "5bec24d7-57ae-43b2-a067-9647fbec7663")
			(effects
				(font
					(size 1.27 1.27)
					(thickness 0.15)
				)
			)
		)
		(property "Datasheet" ""
			(at 0 0 0)
			(layer "F.Fab")
			(hide yes)
			(uuid "13802a51-4f85-4044-a2a3-a574267b0699")
			(effects
				(font
					(size 1.27 1.27)
					(thickness 0.15)
				)
			)
		)
		(property "Description" ""
			(at 0 0 0)
			(layer "F.Fab")
			(hide yes)
			(uuid "37da9323-6d60-4902-8ce6-42d89650da3c")
			(effects
				(font
					(size 1.27 1.27)
					(thickness 0.15)
				)
			)
		)
		(property "LCSC" "C132563"
			(at 0 0 0)
			(layer "F.Fab")
			(hide yes)
			(uuid "32d76b93-1fca-4513-979f-c635cbeb2279")
			(effects
				(font
					(size 1 1)
					(thickness 0.15)
				)
			)
		)
		(property ki_fp_filters "USB*")
		(path "/aabd2718-eedf-433e-b376-55ac298f8890")
		(sheetname "Root")
		(sheetfile "Amiga_MegaDriveGamePadAdapter_RS232.kicad_sch")
		(attr smd)
		(fp_line
			(start -3.76 -1.66)
			(end -3.34 -1.66)
			(stroke
				(width 0.12)
				(type solid)
			)
			(layer "F.SilkS")
			(uuid "7d051b01-572b-450e-9126-b79369abf211")
		)
		(fp_line
			(start -3.76 0.32)
			(end -3.76 -1.66)
			(stroke
				(width 0.12)
				(type solid)
			)
			(layer "F.SilkS")
			(uuid "e45ea560-14dd-46b9-9f6a-5a156caca8f5")
		)
		(fp_line
			(start -3.76 2.69)
			(end -3.76 2.29)
			(stroke
				(width 0.12)
				(type solid)
			)
			(layer "F.SilkS")
			(uuid "25dab03e-0dfc-4af6-b8ba-bcbbfe517c89")
		)
		(fp_line
			(start -1.76 -1.89)
			(end -1.76 -2.34)
			(stroke
				(width 0.12)
				(type solid)
			)
			(layer "F.SilkS")
			(uuid "bf78e42a-3a41-4429-924e-d8fe1ce2a939")
		)
		(fp_line
			(start -1.31 -2.34)
			(end -1.76 -2.34)
			(stroke
				(width 0.12)
				(type solid)
			)
			(layer "F.SilkS")
			(uuid "c6e0f78a-76ae-4135-aa5b-479d641e9336")
		)
		(fp_line
			(start 3.76 -1.66)
			(end 3.34 -1.66)
			(stroke
				(width 0.12)
				(type solid)
			)
			(layer "F.SilkS")
			(uuid "c17cd7c6-d91d-4a24-8099-fef01bcb8c74")
		)
		(fp_line
			(start 3.76 0.32)
			(end 3.76 -1.66)
			(stroke
				(width 0.12)
				(type solid)
			)
			(layer "F.SilkS")
			(uuid "ba1c6d28-97cd-413f-9ee0-9b871860c7c0")
		)
		(fp_line
			(start 3.76 2.29)
			(end 3.76 2.69)
			(stroke
				(width 0.12)
				(type solid)
			)
			(layer "F.SilkS")
			(uuid "3755878b-96e3-41b5-8410-e627a05bc586")
		)
		(fp_line
			(start -3.5 0.5)
			(end 3.5 0.5)
			(stroke
				(width 0.1)
				(type default)
			)
			(layer "Dwgs.User")
			(uuid "6ae271be-359c-4e16-a1e4-d5329aa4f91e")
		)
		(fp_line
			(start 3 2.75)
			(end -3 2.75)
			(stroke
				(width 0.1)
				(type solid)
			)
			(layer "Dwgs.User")
			(uuid "e4b37ef2-82bd-4ea8-ba20-5dfba83ba6ef")
		)
		(fp_line
			(start 3.5 2.1)
			(end -3.5 2.1)
			(stroke
				(width 0.1)
				(type default)
			)
			(layer "Dwgs.User")
			(uuid "48cb4237-0a12-42ab-bbcf-3ee766e77368")
		)
		(fp_line
			(start -4.45 -2.58)
			(end -4.45 3.95)
			(stroke
				(width 0.05)
				(type solid)
			)
			(layer "F.CrtYd")
			(uuid "211b20ba-e98d-4fc8-bb26-d40e14b95faf")
		)
		(fp_line
			(start -4.45 -2.58)
			(end 4.45 -2.58)
			(stroke
				(width 0.05)
				(type solid)
			)
			(layer "F.CrtYd")
			(uuid "ed60bbd9-9b2d-4aad-a0a3-bb38247b61f8")
		)
		(fp_line
			(start -4.45 3.95)
			(end 4.45 3.95)
			(stroke
				(width 0.05)
				(type solid)
			)
			(layer "F.CrtYd")
			(uuid "229ef9d3-3fa0-4fb4-85f9-7362b4be744b")
		)
		(fp_line
			(start 4.45 -2.58)
			(end 4.45 3.95)
			(stroke
				(width 0.05)
				(type solid)
			)
			(layer "F.CrtYd")
			(uuid "19bdfe29-32b7-46ee-9f3d-5255faf6dfcf")
		)
		(fp_line
			(start -3.65 -0.55)
			(end -2.65 -1.55)
			(stroke
				(width 0.1)
				(type solid)
			)
			(layer "F.Fab")
			(uuid "e64e2671-c484-4431-98e0-b9aa232f9ab1")
		)
		(fp_line
			(start -3.65 3.45)
			(end -3.65 -0.55)
			(stroke
				(width 0.1)
				(type solid)
			)
			(layer "F.Fab")
			(uuid "3ed90736-3457-4264-a0bc-0982b601120d")
		)
		(fp_line
			(start -2.65 -1.55)
			(end 3.65 -1.55)
			(stroke
				(width 0.1)
				(type solid)
			)
			(layer "F.Fab")
			(uuid "15032040-c608-429e-bb24-987df4eff126")
		)
		(fp_line
			(start 3.65 -1.55)
			(end 3.65 3.45)
			(stroke
				(width 0.1)
				(type solid)
			)
			(layer "F.Fab")
			(uuid "83730219-9bbf-4b00-9927-3fcedebe0c9d")
		)
		(fp_line
			(start 3.65 3.45)
			(end -3.65 3.45)
			(stroke
				(width 0.1)
				(type solid)
			)
			(layer "F.Fab")
			(uuid "1f1329ff-10c7-4514-9b94-f5133fbb1609")
		)
		(fp_text user "Shield Area"
			(at 0 1.3 0)
			(unlocked yes)
			(layer "Dwgs.User")
			(uuid "7274acc0-d994-4be1-b6e7-1a556a30ede2")
			(effects
				(font
					(size 0.5 0.5)
					(thickness 0.07)
				)
			)
		)
		(fp_text user "PCB Edge"
			(at 0 2.75 0)
			(layer "Dwgs.User")
			(uuid "7af3286e-bc9c-44e3-9b69-8178635b5c8e")
			(effects
				(font
					(size 0.5 0.5)
					(thickness 0.08)
				)
			)
		)
		(fp_text user "${REFERENCE}"
			(at 0 -0.05 0)
			(layer "F.Fab")
			(uuid "1b9e370d-ccb9-4c1b-9545-31691dba5194")
			(effects
				(font
					(size 1 1)
					(thickness 0.15)
				)
			)
		)
		(pad "" smd oval
			(at -3.5 1.3)
			(size 0.89 1.55)
			(layers "F.Paste")
			(uuid "a665a3bc-6feb-42d4-803b-375a17bace50")
		)
		(pad "" smd oval
			(at -2.5 -1.4)
			(size 1.25 0.95)
			(layers "F.Paste")
			(uuid "6a6c9d84-9ad8-46e2-9dd5-a3d2039d2b16")
		)
		(pad "" smd oval
			(at 2.5 -1.4)
			(size 1.25 0.95)
			(layers "F.Paste")
			(uuid "da178f47-68e7-4353-af7b-bbab7613c481")
		)
		(pad "" smd oval
			(at 3.5 1.3)
			(size 0.89 1.55)
			(layers "F.Paste")
			(uuid "e04b6312-be49-48a3-a29f-1cd02806b9aa")
		)
		(pad "1" smd rect
			(at -1.3 -1.4)
			(size 0.4 1.35)
			(layers "F.Cu" "F.Paste" "F.Mask")
			(net 1 "Net-(J1-VBUS)")
			(pinfunction "VBUS")
			(pintype "power_out")
			(uuid "068d2f04-37b6-42e3-bee7-1d43710db1d9")
		)
		(pad "2" smd rect
			(at -0.65 -1.4)
			(size 0.4 1.35)
			(layers "F.Cu" "F.Paste" "F.Mask")
			(net 5 "Net-(J1-D-)")
			(pinfunction "D-")
			(pintype "bidirectional")
			(uuid "eb9010c2-4599-4232-8565-600b088d7b60")
		)
		(pad "3" smd rect
			(at 0 -1.4)
			(size 0.4 1.35)
			(layers "F.Cu" "F.Paste" "F.Mask")
			(net 6 "Net-(J1-D+)")
			(pinfunction "D+")
			(pintype "bidirectional")
			(uuid "b3648320-2efd-412f-a50d-b412538df09a")
		)
		(pad "4" smd rect
			(at 0.65 -1.4)
			(size 0.4 1.35)
			(layers "F.Cu" "F.Paste" "F.Mask")
			(net 7 "unconnected-(J1-ID-Pad4)")
			(pinfunction "ID")
			(pintype "passive+no_connect")
			(uuid "3b26140c-c8dd-4110-9798-0b9548ae20be")
		)
		(pad "5" smd rect
			(at 1.3 -1.4)
			(size 0.4 1.35)
			(layers "F.Cu" "F.Paste" "F.Mask")
			(net 2 "GND")
			(pinfunction "GND")
			(pintype "power_out")
			(uuid "cb25e9c7-538b-491f-be85-6a751f5845e6")
		)
		(pad "6" thru_hole oval
			(at -3.5 1.3)
			(size 1 1.55)
			(drill oval 0.5 1.15)
			(layers "*.Cu" "*.Mask")
			(remove_unused_layers no)
			(net 2 "GND")
			(pinfunction "Shield")
			(pintype "passive")
			(uuid "b18722c6-3524-444a-b8d5-a822b917a598")
		)
		(pad "6" thru_hole oval
			(at -2.5 -1.4)
			(size 1.25 0.95)
			(drill oval 0.85 0.55)
			(layers "*.Cu" "*.Mask")
			(remove_unused_layers no)
			(net 2 "GND")
			(pinfunction "Shield")
			(pintype "passive")
			(uuid "255737ca-0aae-4e18-ae58-2774acee8f92")
		)
		(pad "6" thru_hole oval
			(at 2.5 -1.4)
			(size 1.25 0.95)
			(drill oval 0.85 0.55)
			(layers "*.Cu" "*.Mask")
			(remove_unused_layers no)
			(net 2 "GND")
			(pinfunction "Shield")
			(pintype "passive")
			(uuid "300b2f76-b028-4968-9e5e-1ee09b94bd22")
		)
		(pad "6" thru_hole oval
			(at 3.5 1.3)
			(size 1 1.55)
			(drill oval 0.5 1.15)
			(layers "*.Cu" "*.Mask")
			(remove_unused_layers no)
			(net 2 "GND")
			(pinfunction "Shield")
			(pintype "passive")
			(uuid "18f76103-7a3f-45b5-ba81-b5d7983d7f74")
		)
		(model "${KICAD6_3DMODEL_DIR}/Connector_USB.3dshapes/USB_Micro-B_Amphenol_10118194_Horizontal.wrl"
			(offset
				(xyz 0 0 0)
			)
			(scale
				(xyz 1 1 1)
			)
			(rotate
				(xyz 0 0 0)
			)
		)
	)
	(footprint "Capacitor_SMD:CP_Elec_5x5.3"
		(layer "F.Cu")
		(uuid "e89f19a5-b36c-4be7-98b1-40f7bde4ad9c")
		(at 108.585 72.39 -90)
		(descr "SMD capacitor, aluminum electrolytic, Nichicon, 5.0x5.3mm")
		(tags "capacitor electrolytic")
		(property "Reference" "C3"
			(at 3.81 -1.91 90)
			(layer "F.SilkS")
			(uuid "269c34cc-cc99-4834-a8ae-7824d96d70f7")
			(effects
				(font
					(size 1 1)
					(thickness 0.15)
				)
			)
		)
		(property "Value" "47µF"
			(at 0 3.7 90)
			(layer "F.Fab")
			(uuid "801b370f-baf7-4454-9340-a4bf223c0d31")
			(effects
				(font
					(size 1 1)
					(thickness 0.15)
				)
			)
		)
		(property "Footprint" "Capacitor_SMD:CP_Elec_5x5.3"
			(at 0 0 -90)
			(layer "F.Fab")
			(hide yes)
			(uuid "81a15f6b-4691-40ed-b393-94f255616c7b")
			(effects
				(font
					(size 1.27 1.27)
					(thickness 0.15)
				)
			)
		)
		(property "Datasheet" ""
			(at 0 0 -90)
			(layer "F.Fab")
			(hide yes)
			(uuid "8190506e-899f-412d-a04d-fddcec041b8b")
			(effects
				(font
					(size 1.27 1.27)
					(thickness 0.15)
				)
			)
		)
		(property "Description" ""
			(at 0 0 -90)
			(layer "F.Fab")
			(hide yes)
			(uuid "f36493c1-66f4-4cac-a68f-2e5385105608")
			(effects
				(font
					(size 1.27 1.27)
					(thickness 0.15)
				)
			)
		)
		(property "LCSC" "C249533"
			(at 36.195 180.975 0)
			(layer "F.Fab")
			(hide yes)
			(uuid "407709f6-a01d-4f2b-a00f-a3d37bb53ed5")
			(effects
				(font
					(size 1 1)
					(thickness 0.15)
				)
			)
		)
		(property ki_fp_filters "CP_*")
		(path "/9b8c7ff9-1d59-42c2-a5eb-d29eaf9697c9")
		(sheetname "Root")
		(sheetfile "Amiga_MegaDriveGamePadAdapter_RS232.kicad_sch")
		(attr smd)
		(fp_line
			(start -1.695563 2.76)
			(end 2.76 2.76)
			(stroke
				(width 0.12)
				(type solid)
			)
			(layer "F.SilkS")
			(uuid "34b7cbb9-7e0f-475f-b25a-f9b6891e7d9c")
		)
		(fp_line
			(start 2.76 2.76)
			(end 2.76 1.06)
			(stroke
				(width 0.12)
				(type solid)
			)
			(layer "F.SilkS")
			(uuid "324642cf-583d-4e35-8c73-37c7eb76ca42")
		)
		(fp_line
			(start -2.76 1.695563)
			(end -1.695563 2.76)
			(stroke
				(width 0.12)
				(type solid)
			)
			(layer "F.SilkS")
			(uuid "8db40af6-f9c5-45b4-a9d6-c6b786944235")
		)
		(fp_line
			(start -2.76 1.695563)
			(end -2.76 1.06)
			(stroke
				(width 0.12)
				(type solid)
			)
			(layer "F.SilkS")
			(uuid "d04bcc5d-f6f5-458b-b054-6b53b15ed584")
		)
		(fp_line
			(start -3.625 -1.685)
			(end -3 -1.685)
			(stroke
				(width 0.12)
				(type solid)
			)
			(layer "F.SilkS")
			(uuid "5cf115a0-d3b5-4fbe-8de7-bc319c0e4056")
		)
		(fp_line
			(start -2.76 -1.695563)
			(end -2.76 -1.06)
			(stroke
				(width 0.12)
				(type solid)
			)
			(layer "F.SilkS")
			(uuid "a34857c2-496c-4aee-b0b3-ce3a744c05c5")
		)
		(fp_line
			(start -2.76 -1.695563)
			(end -1.695563 -2.76)
			(stroke
				(width 0.12)
				(type solid)
			)
			(layer "F.SilkS")
			(uuid "5fae8a48-8d1a-4c44-9a73-9ec3514fbfa4")
		)
		(fp_line
			(start -3.3125 -1.9975)
			(end -3.3125 -1.3725)
			(stroke
				(width 0.12)
				(type solid)
			)
			(layer "F.SilkS")
			(uuid "75dd46ac-52ac-4eca-be85-c995eaf357a4")
		)
		(fp_line
			(start -1.695563 -2.76)
			(end 2.76 -2.76)
			(stroke
				(width 0.12)
				(type solid)
			)
			(layer "F.SilkS")
			(uuid "c0354785-fa69-4df0-ad42-bb88e89daf10")
		)
		(fp_line
			(start 2.76 -2.76)
			(end 2.76 -1.06)
			(stroke
				(width 0.12)
				(type solid)
			)
			(layer "F.SilkS")
			(uuid "19598826-e350-4cd9-a689-1441074f4bc6")
		)
		(fp_line
			(start -1.75 2.9)
			(end 2.9 2.9)
			(stroke
				(width 0.05)
				(type solid)
			)
			(layer "F.CrtYd")
			(uuid "32c5e7b6-0f9c-405c-b8d4-ee7bce6e46f3")
		)
		(fp_line
			(start -2.9 1.75)
			(end -1.75 2.9)
			(stroke
				(width 0.05)
				(type solid)
			)
			(layer "F.CrtYd")
			(uuid "8aece895-f104-4d61-a457-00d1dae33847")
		)
		(fp_line
			(start -3.95 1.05)
			(end -2.9 1.05)
			(stroke
				(width 0.05)
				(type solid)
			)
			(layer "F.CrtYd")
			(uuid "c4dd8802-e603-4550-83f6-65ecd835adbe")
		)
		(fp_line
			(start -2.9 1.05)
			(end -2.9 1.75)
			(stroke
				(width 0.05)
				(type solid)
			)
			(layer "F.CrtYd")
			(uuid "56bf05e7-7f3d-4cce-b6ed-89658003eb7c")
		)
		(fp_line
			(start 2.9 1.05)
			(end 2.9 2.9)
			(stroke
				(width 0.05)
				(type solid)
			)
			(layer "F.CrtYd")
			(uuid "65de6324-4862-49d2-a276-85c36ff6b567")
		)
		(fp_line
			(start 3.95 1.05)
			(end 2.9 1.05)
			(stroke
				(width 0.05)
				(type solid)
			)
			(layer "F.CrtYd")
			(uuid "a11ca89f-cbe4-4187-b6c9-10b50b180a64")
		)
		(fp_line
			(start -3.95 -1.05)
			(end -3.95 1.05)
			(stroke
				(width 0.05)
				(type solid)
			)
			(layer "F.CrtYd")
			(uuid "3175483c-f676-45d5-9515-a9aeccea4003")
		)
		(fp_line
			(start -2.9 -1.05)
			(end -3.95 -1.05)
			(stroke
				(width 0.05)
				(type solid)
			)
			(layer "F.CrtYd")
			(uuid "a8ea5137-4eae-4b49-a61c-40579ab8fd1f")
		)
		(fp_line
			(start 2.9 -1.05)
			(end 3.95 -1.05)
			(stroke
				(width 0.05)
				(type solid)
			)
			(layer "F.CrtYd")
			(uuid "3a62a4b5-7797-4a33-880f-7ec79e2403bc")
		)
		(fp_line
			(start 3.95 -1.05)
			(end 3.95 1.05)
			(stroke
				(width 0.05)
				(type solid)
			)
			(layer "F.CrtYd")
			(uuid "004f78f0-74a2-4fe8-9efb-a276c96cad32")
		)
		(fp_line
			(start -2.9 -1.75)
			(end -2.9 -1.05)
			(stroke
				(width 0.05)
				(type solid)
			)
			(layer "F.CrtYd")
			(uuid "ff874f46-6141-4b27-804d-c1c50abcf110")
		)
		(fp_line
			(start -2.9 -1.75)
			(end -1.75 -2.9)
			(stroke
				(width 0.05)
				(type solid)
			)
			(layer "F.CrtYd")
			(uuid "762984d1-bb09-4c5c-9f02-c65fabea1137")
		)
		(fp_line
			(start -1.75 -2.9)
			(end 2.9 -2.9)
			(stroke
				(width 0.05)
				(type solid)
			)
			(layer "F.CrtYd")
			(uuid "4d235c7d-6dbf-4164-95a6-180f2b970627")
		)
		(fp_line
			(start 2.9 -2.9)
			(end 2.9 -1.05)
			(stroke
				(width 0.05)
				(type solid)
			)
			(layer "F.CrtYd")
			(uuid "231a04de-3ec5-44ea-a472-dfef8984e29f")
		)
		(fp_line
			(start -1.65 2.65)
			(end 2.65 2.65)
			(stroke
				(width 0.1)
				(type solid)
			)
			(layer "F.Fab")
			(uuid "eafbd2e4-8956-4837-9fb7-477e10949fce")
		)
		(fp_line
			(start -2.65 1.65)
			(end -1.65 2.65)
			(stroke
				(width 0.1)
				(type solid)
			)
			(layer "F.Fab")
			(uuid "f73134b0-2bcd-449d-b6e2-c45f32c5fb45")
		)
		(fp_line
			(start -2.033956 -1.2)
			(end -1.533956 -1.2)
			(stroke
				(width 0.1)
				(type solid)
			)
			(layer "F.Fab")
			(uuid "9b88f42f-12ce-4f1e-a125-cb1dc375ff8e")
		)
		(fp_line
			(start -1.783956 -1.45)
			(end -1.783956 -0.95)
			(stroke
				(width 0.1)
				(type solid)
			)
			(layer "F.Fab")
			(uuid "ff974459-a627-474b-94a4-855560fcefcd")
		)
		(fp_line
			(start -2.65 -1.65)
			(end -2.65 1.65)
			(stroke
				(width 0.1)
				(type solid)
			)
			(layer "F.Fab")
			(uuid "c77a7a45-a9e3-4fd4-b2e3-3ec8a82309e0")
		)
		(fp_line
			(start -2.65 -1.65)
			(end -1.65 -2.65)
			(stroke
				(width 0.1)
				(type solid)
			)
			(layer "F.Fab")
			(uuid "fc709d2f-d79c-4fa3-b841-fe83943f52bc")
		)
		(fp_line
			(start -1.65 -2.65)
			(end 2.65 -2.65)
			(stroke
				(width 0.1)
				(type solid)
			)
			(layer "F.Fab")
			(uuid "ce090444-50df-42d6-a77d-6dcccdcc78ff")
		)
		(fp_line
			(start 2.65 -2.65)
			(end 2.65 2.65)
			(stroke
				(width 0.1)
				(type solid)
			)
			(layer "F.Fab")
			(uuid "459a081b-cbc4-4a72-8b1a-fb1e8223dea4")
		)
		(fp_circle
			(center 0 0)
			(end 2.5 0)
			(stroke
				(width 0.1)
				(type solid)
			)
			(fill none)
			(layer "F.Fab")
			(uuid "6f740911-ad87-43dd-afdf-d992792924ab")
		)
		(fp_text user "${REFERENCE}"
			(at 0 0 90)
			(layer "F.Fab")
			(uuid "90950b66-0d1c-4a01-8e9c-45057029af76")
			(effects
				(font
					(size 1 1)
					(thickness 0.15)
				)
			)
		)
		(pad "1" smd roundrect
			(at -2.2 0 270)
			(size 3 1.6)
			(layers "F.Cu" "F.Paste" "F.Mask")
			(roundrect_rratio 0.15625)
			(net 4 "+5V")
			(pintype "passive")
			(uuid "94557a0d-8002-49c0-9b0c-48d9c15f8e0c")
		)
		(pad "2" smd roundrect
			(at 2.2 0 270)
			(size 3 1.6)
			(layers "F.Cu" "F.Paste" "F.Mask")
			(roundrect_rratio 0.15625)
			(net 2 "GND")
			(pintype "passive")
			(uuid "53852272-7301-4686-9554-0df611b70215")
		)
		(model "${KICAD6_3DMODEL_DIR}/Capacitor_SMD.3dshapes/CP_Elec_5x5.3.wrl"
			(offset
				(xyz 0 0 0)
			)
			(scale
				(xyz 1 1 1)
			)
			(rotate
				(xyz 0 0 0)
			)
		)
	)
	(footprint "Capacitor_SMD:C_0805_2012Metric_Pad1.18x1.45mm_HandSolder"
		(layer "F.Cu")
		(uuid "ea4c72b4-c2a8-45b0-93ca-25b74bf60635")
		(at 100.33 66.9925 -90)
		(descr "Capacitor SMD 0805 (2012 Metric), square (rectangular) end terminal, IPC_7351 nominal with elongated pad for handsoldering. (Body size source: IPC-SM-782 page 76, https://www.pcb-3d.com/wordpress/wp-content/uploads/ipc-sm-782a_amendment_1_and_2.pdf, https://docs.google.com/spreadsheets/d/1BsfQQcO9C6DZCsRaXUlFlo91Tg2WpOkGARC1WS5S8t0/edit?usp=sharing), generated with kicad-footprint-generator")
		(tags "capacitor handsolder")
		(property "Reference" "C2"
			(at 2.8575 0.635 90)
			(layer "F.SilkS")
			(uuid "636e406d-6405-438d-8d31-9ede4f7c445a")
			(effects
				(font
					(size 1 1)
					(thickness 0.15)
				)
			)
		)
		(property "Value" "10n"
			(at 0 1.68 90)
			(layer "F.Fab")
			(uuid "ff3d7e5c-91f2-45d8-9927-6fdb591b3fea")
			(effects
				(font
					(size 1 1)
					(thickness 0.15)
				)
			)
		)
		(property "Footprint" "Capacitor_SMD:C_0805_2012Metric_Pad1.18x1.45mm_HandSolder"
			(at 0 0 -90)
			(layer "F.Fab")
			(hide yes)
			(uuid "3e59105d-b620-4f28-94e1-0deaabf704da")
			(effects
				(font
					(size 1.27 1.27)
					(thickness 0.15)
				)
			)
		)
		(property "Datasheet" ""
			(at 0 0 -90)
			(layer "F.Fab")
			(hide yes)
			(uuid "db281d32-1b45-46b0-98eb-11accbdffc15")
			(effects
				(font
					(size 1.27 1.27)
					(thickness 0.15)
				)
			)
		)
		(property "Description" ""
			(at 0 0 -90)
			(layer "F.Fab")
			(hide yes)
			(uuid "cb200541-73e9-4bfc-8bd3-ed5291408c79")
			(effects
				(font
					(size 1.27 1.27)
					(thickness 0.15)
				)
			)
		)
		(property "LCSC" "C1710"
			(at 33.3375 167.3225 0)
			(layer "F.Fab")
			(hide yes)
			(uuid "09b6cb3f-cee3-4f77-b87e-e7846b80805b")
			(effects
				(font
					(size 1 1)
					(thickness 0.15)
				)
			)
		)
		(property ki_fp_filters "C_*")
		(path "/19dbdf92-55e5-4514-8fe7-c1031a0ce23b")
		(sheetname "Root")
		(sheetfile "Amiga_MegaDriveGamePadAdapter_RS232.kicad_sch")
		(attr smd)
		(fp_line
			(start -0.261252 0.735)
			(end 0.261252 0.735)
			(stroke
				(width 0.12)
				(type solid)
			)
			(layer "F.SilkS")
			(uuid "a47a85dd-7956-4596-91f7-f1f87fe4c43c")
		)
		(fp_line
			(start -0.261252 -0.735)
			(end 0.261252 -0.735)
			(stroke
				(width 0.12)
				(type solid)
			)
			(layer "F.SilkS")
			(uuid "dc2cf9d5-3ff1-4761-b9b3-269b7a0fcdf3")
		)
		(fp_line
			(start -1.88 0.98)
			(end -1.88 -0.98)
			(stroke
				(width 0.05)
				(type solid)
			)
			(layer "F.CrtYd")
			(uuid "0613250f-252b-4e29-9dee-4a28ddcf4108")
		)
		(fp_line
			(start 1.88 0.98)
			(end -1.88 0.98)
			(stroke
				(width 0.05)
				(type solid)
			)
			(layer "F.CrtYd")
			(uuid "70cd3d5f-a03b-4f9c-b8ae-c361d550a9a4")
		)
		(fp_line
			(start -1.88 -0.98)
			(end 1.88 -0.98)
			(stroke
				(width 0.05)
				(type solid)
			)
			(layer "F.CrtYd")
			(uuid "c67b3876-14d0-4033-93c8-50491278b358")
		)
		(fp_line
			(start 1.88 -0.98)
			(end 1.88 0.98)
			(stroke
				(width 0.05)
				(type solid)
			)
			(layer "F.CrtYd")
			(uuid "82c32b57-04c7-449b-ab36-4244dffcd34a")
		)
		(fp_line
			(start -1 0.625)
			(end -1 -0.625)
			(stroke
				(width 0.1)
				(type solid)
			)
			(layer "F.Fab")
			(uuid "4fb13bc2-0e86-401e-9e68-b289bdfd5c2b")
		)
		(fp_line
			(start 1 0.625)
			(end -1 0.625)
			(stroke
				(width 0.1)
				(type solid)
			)
			(layer "F.Fab")
			(uuid "2e5cbcdb-6026-4686-a615-dabde6638c58")
		)
		(fp_line
			(start -1 -0.625)
			(end 1 -0.625)
			(stroke
				(width 0.1)
				(type solid)
			)
			(layer "F.Fab")
			(uuid "f91b5d5d-c0a5-4fbf-b5f8-8a82da040f6c")
		)
		(fp_line
			(start 1 -0.625)
			(end 1 0.625)
			(stroke
				(width 0.1)
				(type solid)
			)
			(layer "F.Fab")
			(uuid "5fa0f995-ec23-4cd0-b4ad-8dc0816a0ed0")
		)
		(fp_text user "${REFERENCE}"
			(at 0 0 90)
			(layer "F.Fab")
			(uuid "05d65773-e4ee-400c-ac1e-428b322252e4")
			(effects
				(font
					(size 0.5 0.5)
					(thickness 0.08)
				)
			)
		)
		(pad "1" smd roundrect
			(at -1.0375 0 270)
			(size 1.175 1.45)
			(layers "F.Cu" "F.Paste" "F.Mask")
			(roundrect_rratio 0.2127659574)
			(net 3 "Net-(U1-V3)")
			(pintype "passive")
			(uuid "ef386d04-f8c4-43f4-b507-72943e7738d7")
		)
		(pad "2" smd roundrect
			(at 1.0375 0 270)
			(size 1.175 1.45)
			(layers "F.Cu" "F.Paste" "F.Mask")
			(roundrect_rratio 0.2127659574)
			(net 2 "GND")
			(pintype "passive")
			(uuid "65b7491c-6297-4517-a3b3-d0218f5adc8e")
		)
		(model "${KICAD6_3DMODEL_DIR}/Capacitor_SMD.3dshapes/C_0805_2012Metric.wrl"
			(offset
				(xyz 0 0 0)
			)
			(scale
				(xyz 1 1 1)
			)
			(rotate
				(xyz 0 0 0)
			)
		)
	)
	(footprint "Connector_PinHeader_2.00mm:PinHeader_1x05_P2.00mm_Vertical"
		(layer "B.Cu")
		(uuid "2b21a1b5-0bdc-439e-bf8a-09aac22ee05c")
		(at 101.22 59.055 -90)
		(descr "Through hole straight pin header, 1x05, 2.00mm pitch, single row")
		(tags "Through hole pin header THT 1x05 2.00mm single row")
		(property "Reference" "J3"
			(at 0 2.16 90)
			(layer "F.SilkS")
			(hide yes)
			(uuid "a9104e64-103d-4c32-81b9-9110ba3a254d")
			(effects
				(font
					(size 1 1)
					(thickness 0.15)
				)
				(justify mirror)
			)
		)
		(property "Value" "Conn_01x05"
			(at 0 -10.06 90)
			(layer "B.Fab")
			(uuid "07106373-f7cc-4df0-b30c-fcaf8c84e525")
			(effects
				(font
					(size 1 1)
					(thickness 0.15)
				)
				(justify mirror)
			)
		)
		(property "Footprint" "Connector_PinHeader_2.00mm:PinHeader_1x05_P2.00mm_Vertical"
			(at 0 0 -90)
			(layer "F.Fab")
			(hide yes)
			(uuid "a422d1a2-47ca-4a57-86c1-71268fe05fcd")
			(effects
				(font
					(size 1.27 1.27)
					(thickness 0.15)
				)
			)
		)
		(property "Datasheet" ""
			(at 0 0 -90)
			(layer "F.Fab")
			(hide yes)
			(uuid "32386209-0d62-435a-aa56-6b888095a406")
			(effects
				(font
					(size 1.27 1.27)
					(thickness 0.15)
				)
			)
		)
		(property "Description" ""
			(at 0 0 -90)
			(layer "F.Fab")
			(hide yes)
			(uuid "5e69f8ed-e714-4b6e-9a5b-33daf44305ad")
			(effects
				(font
					(size 1.27 1.27)
					(thickness 0.15)
				)
			)
		)
		(property "LCSC" "C376078"
			(at 42.165 160.275 0)
			(layer "B.Fab")
			(hide yes)
			(uuid "478d74f7-4f40-4923-9f3a-0195a3ef081e")
			(effects
				(font
					(size 1 1)
					(thickness 0.15)
				)
				(justify mirror)
			)
		)
		(property ki_fp_filters "Connector*:*_1x??_*")
		(path "/8c6485e6-b5b3-4390-9073-1ba9006a5f96")
		(sheetname "Root")
		(sheetfile "Amiga_MegaDriveGamePadAdapter_RS232.kicad_sch")
		(attr through_hole)
		(fp_line
			(start -1.06 1.06)
			(end 0 1.06)
			(stroke
				(width 0.12)
				(type solid)
			)
			(layer "B.SilkS")
			(uuid "743ea4f1-1892-4712-a95f-e977506b87b0")
		)
		(fp_line
			(start -1.06 0)
			(end -1.06 1.06)
			(stroke
				(width 0.12)
				(type solid)
			)
			(layer "B.SilkS")
			(uuid "fd44c260-7abf-4564-90dd-72b261a3dd97")
		)
		(fp_line
			(start -1.06 -1)
			(end 1.06 -1)
			(stroke
				(width 0.12)
				(type solid)
			)
			(layer "B.SilkS")
			(uuid "18301a5a-53c8-4d32-9f40-23c3c6b091cc")
		)
		(fp_line
			(start -1.06 -1)
			(end -1.06 -9.06)
			(stroke
				(width 0.12)
				(type solid)
			)
			(layer "B.SilkS")
			(uuid "2f0797cf-9747-45cd-b9a3-a0c4d6ed971a")
		)
		(fp_line
			(start 1.06 -1)
			(end 1.06 -9.06)
			(stroke
				(width 0.12)
				(type solid)
			)
			(layer "B.SilkS")
			(uuid "2a059279-0ce4-4c0e-a324-9d4a7e823845")
		)
		(fp_line
			(start -1.06 -9.06)
			(end 1.06 -9.06)
			(stroke
				(width 0.12)
				(type solid)
			)
			(layer "B.SilkS")
			(uuid "d1c24eab-0e48-44c8-843a-2547a9671269")
		)
		(fp_line
			(start -1.5 1.5)
			(end -1.5 -9.5)
			(stroke
				(width 0.05)
				(type solid)
			)
			(layer "B.CrtYd")
			(uuid "e3e0fa63-e0fd-4ef8-aa63-6b01179198a1")
		)
		(fp_line
			(start 1.5 1.5)
			(end -1.5 1.5)
			(stroke
				(width 0.05)
				(type solid)
			)
			(layer "B.CrtYd")
			(uuid "533ba26f-c178-4929-ac31-d4ae33f2c051")
		)
		(fp_line
			(start -1.5 -9.5)
			(end 1.5 -9.5)
			(stroke
				(width 0.05)
				(type solid)
			)
			(layer "B.CrtYd")
			(uuid "89885263-94c6-4ce9-8b12-b03677ee2526")
		)
		(fp_line
			(start 1.5 -9.5)
			(end 1.5 1.5)
			(stroke
				(width 0.05)
				(type solid)
			)
			(layer "B.CrtYd")
			(uuid "eb5c4760-fadb-4f1a-86f5-0beb7192b862")
		)
		(fp_line
			(start -0.5 1)
			(end 1 1)
			(stroke
				(width 0.1)
				(type solid)
			)
			(layer "B.Fab")
			(uuid "7cf2e3a6-4119-4742-b745-bf1dc073f79f")
		)
		(fp_line
			(start 1 1)
			(end 1 -9)
			(stroke
				(width 0.1)
				(type solid)
			)
			(layer "B.Fab")
			(uuid "6f9bb47d-ad0b-454f-8f33-e8163506723a")
		)
		(fp_line
			(start -1 0.5)
			(end -0.5 1)
			(stroke
				(width 0.1)
				(type solid)
			)
			(layer "B.Fab")
			(uuid "c485d443-da34-41ba-8dba-f72763739472")
		)
		(fp_line
			(start -1 -9)
			(end -1 0.5)
			(stroke
				(width 0.1)
				(type solid)
			)
			(layer "B.Fab")
			(uuid "08b8370b-7e02-4ac2-8385-9523cef67844")
		)
		(fp_line
			(start 1 -9)
			(end -1 -9)
			(stroke
				(width 0.1)
				(type solid)
			)
			(layer "B.Fab")
			(uuid "16abc232-83ed-4f97-b8cd-fdf0faf5c6b6")
		)
		(fp_text user "${REFERENCE}"
			(at 0 -4 180)
			(layer "B.Fab")
			(uuid "f3b596ab-17df-4182-9f6e-c58b6528ef15")
			(effects
				(font
					(size 1 1)
					(thickness 0.15)
				)
				(justify mirror)
			)
		)
		(pad "1" thru_hole rect
			(at 0 0 270)
			(size 1.35 1.35)
			(drill 0.8)
			(layers "*.Cu" "*.Mask")
			(remove_unused_layers no)
			(net 14 "Net-(D1-K)")
			(pinfunction "Pin_1")
			(pintype "passive")
			(uuid "f00297f5-04b7-455f-9c93-143aa5f80b88")
		)
		(pad "2" thru_hole oval
			(at 0 -2 270)
			(size 1.35 1.35)
			(drill 0.8)
			(layers "*.Cu" "*.Mask")
			(remove_unused_layers no)
			(net 11 "unconnected-(J3-Pin_2-Pad2)")
			(pinfunction "Pin_2")
			(pintype "passive+no_connect")
			(uuid "fcfff9ed-6504-4f54-8d69-2befa0214b16")
		)
		(pad "3" thru_hole oval
			(at 0 -4 270)
			(size 1.35 1.35)
			(drill 0.8)
			(layers "*.Cu" "*.Mask")
			(remove_unused_layers no)
			(net 9 "/RXD")
			(pinfunction "Pin_3")
			(pintype "passive")
			(uuid "ee35d6f1-3056-4d88-82d9-d6cc5490012b")
		)
		(pad "4" thru_hole oval
			(at 0 -6 270)
			(size 1.35 1.35)
			(drill 0.8)
			(layers "*.Cu" "*.Mask")
			(remove_unused_layers no)
			(net 10 "/TXD")
			(pinfunction "Pin_4")
			(pintype "passive")
			(uuid "915399c0-3681-434c-9ee7-40bd69cde0e5")
		)
		(pad "5" thru_hole oval
			(at 0 -8 270)
			(size 1.35 1.35)
			(drill 0.8)
			(layers "*.Cu" "*.Mask")
			(remove_unused_layers no)
			(net 2 "GND")
			(pinfunction "Pin_5")
			(pintype "passive")
			(uuid "6da16d35-20f5-4048-a1f8-b408615e5f0a")
		)
		(model "${KICAD6_3DMODEL_DIR}/Connector_PinHeader_2.00mm.3dshapes/PinHeader_1x05_P2.00mm_Vertical.wrl"
			(offset
				(xyz 0 0 0)
			)
			(scale
				(xyz 1 1 1)
			)
			(rotate
				(xyz 0 0 0)
			)
		)
	)
	(gr_line
		(start 112 57.5)
		(end 98 57.5)
		(stroke
			(width 0.1)
			(type default)
		)
		(layer "Edge.Cuts")
		(uuid "308c2994-3167-429f-889a-f9c711c9c309")
	)
	(gr_line
		(start 98 82)
		(end 112 82)
		(stroke
			(width 0.1)
			(type default)
		)
		(layer "Edge.Cuts")
		(uuid "9991308f-0327-49aa-91a3-dce56793ae67")
	)
	(gr_line
		(start 112 82)
		(end 112 57.5)
		(stroke
			(width 0.1)
			(type default)
		)
		(layer "Edge.Cuts")
		(uuid "bad713e2-af26-4a83-84d9-4f9e78140992")
	)
	(gr_line
		(start 98 57.5)
		(end 98 82)
		(stroke
			(width 0.1)
			(type default)
		)
		(layer "Edge.Cuts")
		(uuid "f80f973a-c082-4771-bcc9-9f7d11c8a58a")
	)
	(gr_text "Amega32 Uart Adapter\nv${REVISION} by\nRWahler@gmx.net\nManufactured\nin Licence by\nAlinea Computer\nwww.amiga-shop.net"
		(at 109.5375 62.865 90)
		(layer "B.SilkS")
		(uuid "fcf19c91-c67c-47dc-b0c9-32f41cbb1217")
		(effects
			(font
				(size 1 1)
				(thickness 0.15)
			)
			(justify left bottom mirror)
		)
	)
	(gr_text "+"
		(at 109.22 63.8175 0)
		(layer "F.SilkS")
		(uuid "076e5561-0fef-4b71-a068-5ad45cae3d86")
		(effects
			(font
				(size 1 1)
				(thickness 0.15)
			)
			(justify bottom)
		)
	)
	(gr_text "1"
		(at 110.49 62.23 0)
		(layer "F.SilkS")
		(uuid "2d83fd3a-5c96-4541-baec-83178631535a")
		(effects
			(font
				(size 1 1)
				(thickness 0.15)
			)
			(justify left bottom)
		)
	)
	(gr_text "1"
		(at 99.06 59.69 0)
		(layer "F.SilkS")
		(uuid "3cc869b8-1b30-44cd-aff1-0719135ed14e")
		(effects
			(font
				(size 1 1)
				(thickness 0.15)
			)
			(justify left bottom)
		)
	)
	(gr_text "R"
		(at 105.41 63.8175 0)
		(layer "F.SilkS")
		(uuid "5e49a4b0-a275-4a03-a6b4-93b4ac408197")
		(effects
			(font
				(size 1 1)
				(thickness 0.15)
			)
			(justify bottom)
		)
	)
	(gr_text "T"
		(at 103.8225 63.8175 0)
		(layer "F.SilkS")
		(uuid "88714df9-7cc1-4111-bf51-790a267be717")
		(effects
			(font
				(size 1 1)
				(thickness 0.15)
			)
			(justify bottom)
		)
	)
	(gr_text "-"
		(at 101.2825 63.8175 0)
		(layer "F.SilkS")
		(uuid "a71d49cd-1b67-416f-a3d8-362ac03f01fe")
		(effects
			(font
				(size 1 1)
				(thickness 0.15)
			)
			(justify bottom)
		)
	)
	(dimension
		(type aligned)
		(layer "Dwgs.User")
		(uuid "66a56027-aca6-40e9-a472-b0cc97c54a02")
		(pts
			(xy 98 57.5) (xy 112 57.5)
		)
		(height -5)
		(gr_text "14.0 mm"
			(at 105 51.35 0)
			(layer "Dwgs.User")
			(uuid "66a56027-aca6-40e9-a472-b0cc97c54a02")
			(effects
				(font
					(size 1 1)
					(thickness 0.15)
				)
			)
		)
		(format
			(prefix "")
			(suffix "")
			(units 3)
			(units_format 1)
			(precision 1)
		)
		(style
			(thickness 0.15)
			(arrow_length 1.27)
			(text_position_mode 0)
			(extension_height 0.58642)
			(extension_offset 0.5) keep_text_aligned)
	)
	(dimension
		(type aligned)
		(layer "Dwgs.User")
		(uuid "b227038f-02d8-4b6e-a7fb-9b49449a116a")
		(pts
			(xy 112 57.5) (xy 112 82)
		)
		(height -5)
		(gr_text "24.5 mm"
			(at 115.85 69.75 90)
			(layer "Dwgs.User")
			(uuid "b227038f-02d8-4b6e-a7fb-9b49449a116a")
			(effects
				(font
					(size 1 1)
					(thickness 0.15)
				)
			)
		)
		(format
			(prefix "")
			(suffix "")
			(units 3)
			(units_format 1)
			(precision 1)
		)
		(style
			(thickness 0.15)
			(arrow_length 1.27)
			(text_position_mode 0)
			(extension_height 0.58642)
			(extension_offset 0.5) keep_text_aligned)
	)
	(segment
		(start 101.9175 74.6975)
		(end 100.125 74.6975)
		(width 0.4)
		(layer "F.Cu")
		(net 1)
		(uuid "6c29ed15-9449-432b-8b32-3172e16f16ac")
	)
	(segment
		(start 102.205 77.975)
		(end 102.205 74.985)
		(width 0.4)
		(layer "F.Cu")
		(net 1)
		(uuid "8c42180e-9d2e-4568-9920-2cbeb244ab79")
	)
	(segment
		(start 100.125 74.6975)
		(end 100.0125 74.81)
		(width 0.4)
		(layer "F.Cu")
		(net 1)
		(uuid "abde6d67-bf2c-40a6-916e-6cba952592d0")
	)
	(segment
		(start 102.205 74.985)
		(end 101.9175 74.6975)
		(width 0.4)
		(layer "F.Cu")
		(net 1)
		(uuid "bed9466f-c9f6-4f1d-b3f1-1740322fe3bb")
	)
	(segment
		(start 106.045 68.8975)
		(end 105.0925 67.945)
		(width 0.4)
		(layer "F.Cu")
		(net 2)
		(uuid "04e364dc-b2b8-411c-898a-7304c2653b46")
	)
	(segment
		(start 100.005 80.675)
		(end 100.965 80.675)
		(width 0.4)
		(layer "F.Cu")
		(net 2)
		(uuid "1c51a496-781c-41c1-a4db-3e948f6f2ae6")
	)
	(segment
		(start 100.965 68.665)
		(end 100.33 68.03)
		(width 0.4)
		(layer "F.Cu")
		(net 2)
		(uuid "2188c0ad-3eb7-45e8-aba1-371551c3811e")
	)
	(segment
		(start 104.805 77.1225)
		(end 106.045 75.8825)
		(width 0.4)
		(layer "F.Cu")
		(net 2)
		(uuid "2448b035-9ea1-4660-8338-775f413d34d7")
	)
	(segment
		(start 103.505 69.51)
		(end 103.505 67.945)
		(width 0.25)
		(layer "F.Cu")
		(net 2)
		(uuid "25564d11-2534-4886-b5a2-b53c47d41580")
	)
	(segment
		(start 106.0675 74.59)
		(end 106.045 74.6125)
		(width 0.4)
		(layer "F.Cu")
		(net 2)
		(uuid "3477e6de-bf55-42d9-91b8-8622d5992f9e")
	)
	(segment
		(start 105.0925 67.945)
		(end 103.505 67.945)
		(width 0.4)
		(layer "F.Cu")
		(net 2)
		(uuid "34997cc5-5da6-4b24-9010-6998c3051e2a")
	)
	(segment
		(start 106.045 74.6125)
		(end 106.045 68.8975)
		(width 0.4)
		(layer "F.Cu")
		(net 2)
		(uuid "3714daef-e0a2-43ea-bd19-e844d673cd1d")
	)
	(segment
		(start 100.415 67.945)
		(end 100.33 68.03)
		(width 0.4)
		(layer "F.Cu")
		(net 2)
		(uuid "4b9db83d-9f79-48b4-9cf7-cd9b819b28fb")
	)
	(segment
		(start 106.045 80.675)
		(end 107.005 80.675)
		(width 0.4)
		(layer "F.Cu")
		(net 2)
		(uuid "54b1bed2-e1ab-43ff-a302-e2b201fc4bdb")
	)
	(segment
		(start 101.005 77.975)
		(end 101.005 80.635)
		(width 0.4)
		(layer "F.Cu")
		(net 2)
		(uuid "654663fe-19b9-4152-a6e8-51bbae497fa6")
	)
	(segment
		(start 106.005 80.635)
		(end 106.045 80.675)
		(width 0.4)
		(layer "F.Cu")
		(net 2)
		(uuid "755700ee-d1b5-4e98-b944-dcfcae0f0fec")
	)
	(segment
		(start 100.965 80.675)
		(end 106.045 80.675)
		(width 0.4)
		(layer "F.Cu")
		(net 2)
		(uuid "75945ba9-1338-45b7-b696-682b7f613b2d")
	)
	(segment
		(start 108.585 74.59)
		(end 106.0675 74.59)
		(width 0.4)
		(layer "F.Cu")
		(net 2)
		(uuid "799fefbc-58d9-4715-8d85-a0f13320aeeb")
	)
	(segment
		(start 100.965 70.1675)
		(end 100.965 69.215)
		(width 0.4)
		(layer "F.Cu")
		(net 2)
		(uuid "7a626e4c-0f2b-440f-b8b3-7fea7ddd4de1")
	)
	(segment
		(start 106.045 75.8825)
		(end 106.045 74.6125)
		(width 0.4)
		(layer "F.Cu")
		(net 2)
		(uuid "7cdc5d06-ccf1-47d2-89a4-64c6a5a47d7b")
	)
	(segment
		(start 101.9175 71.4375)
		(end 100.965 70.485)
		(width 0.4)
		(layer "F.Cu")
		(net 2)
		(uuid "82b10d93-46c5-4824-8a7a-01464d708059")
	)
	(segment
		(start 106.005 77.975)
		(end 104.805 77.975)
		(width 0.4)
		(layer "F.Cu")
		(net 2)
		(uuid "8e9cbe8f-8d8d-49a4-9ae0-d445bd848c13")
	)
	(segment
		(start 103.505 67.945)
		(end 100.415 67.945)
		(width 0.4)
		(layer "F.Cu")
		(net 2)
		(uuid "94a738a6-0dcf-4c96-b73a-27c70f141e0e")
	)
	(segment
		(start 101.005 80.635)
		(end 100.965 80.675)
		(width 0.4)
		(layer "F.Cu")
		(net 2)
		(uuid "9f293992-46c9-4a4b-995e-63715e8013ca")
	)
	(segment
		(start 106.005 77.975)
		(end 106.005 80.635)
		(width 0.4)
		(layer "F.Cu")
		(net 2)
		(uuid "a204a5d1-a8ad-4ae3-a270-6934347fdb37")
	)
	(segment
		(start 101.9175 72.6225)
		(end 101.9175 71.4375)
		(width 0.4)
		(layer "F.Cu")
		(net 2)
		(uuid "a4d8e120-8aea-4f1c-8536-26e135238f3f")
	)
	(segment
		(start 100.965 69.215)
		(end 100.965 68.665)
		(width 0.4)
		(layer "F.Cu")
		(net 2)
		(uuid "f37ebbfe-9e1c-4f8e-a2c4-55fb0fcd4f2d")
	)
	(segment
		(start 100.965 70.485)
		(end 100.965 70.1675)
		(width 0.4)
		(layer "F.Cu")
		(net 2)
		(uuid "f5b0136a-97f6-441c-8735-9b1ca691033e")
	)
	(segment
		(start 104.805 77.975)
		(end 104.805 77.1225)
		(width 0.4)
		(layer "F.Cu")
		(net 2)
		(uuid "ff04742b-56e2-422d-b271-8631b89ab929")
	)
	(via
		(at 100.965 70.1675)
		(size 0.8)
		(drill 0.4)
		(layers "F.Cu" "B.Cu")
		(net 2)
		(uuid "3a466bdb-ddb2-4c1f-8fc8-0e13a1fee217")
	)
	(via
		(at 100.965 69.215)
		(size 0.8)
		(drill 0.4)
		(layers "F.Cu" "B.Cu")
		(net 2)
		(uuid "6fab97ef-70ab-47f6-adec-1d428942d04b")
	)
	(segment
		(start 100.965 69.215)
		(end 101.22 68.96)
		(width 0.4)
		(layer "B.Cu")
		(net 2)
		(uuid "3451b35c-26cc-4c76-8334-a3a19e3cff2a")
	)
	(segment
		(start 101.22 66.04)
		(end 107.95 66.04)
		(width 0.4)
		(layer "B.Cu")
		(net 2)
		(uuid "57f0a44f-3603-4fc4-b316-154c38d6947f")
	)
	(segment
		(start 111.125 60.96)
		(end 109.22 59.055)
		(width 0.4)
		(layer "B.Cu")
		(net 2)
		(uuid "66ac46c4-dd4c-4d63-8df5-0cf2cfcb485c")
	)
	(segment
		(start 100.965 70.1675)
		(end 100.965 69.215)
		(width 0.4)
		(layer "B.Cu")
		(net 2)
		(uuid "79b9f49e-0310-444e-bb08-50c28e57e759")
	)
	(segment
		(start 101.22 66.04)
		(end 101.22 61.595)
		(width 0.4)
		(layer "B.Cu")
		(net 2)
		(uuid "cf0cca12-f6ce-41a0-a957-8e625e342c74")
	)
	(segment
		(start 111.125 62.865)
		(end 111.125 60.96)
		(width 0.4)
		(layer "B.Cu")
		(net 2)
		(uuid "cf2069ea-39a1-4b5c-b329-6e6001afd1de")
	)
	(segment
		(start 107.95 66.04)
		(end 111.125 62.865)
		(width 0.4)
		(layer "B.Cu")
		(net 2)
		(uuid "d5875b41-7941-45f2-95a8-5edf005e5681")
	)
	(segment
		(start 101.22 68.96)
		(end 101.22 66.04)
		(width 0.4)
		(layer "B.Cu")
		(net 2)
		(uuid "f13688a0-da13-476b-b295-15ae3749fd9f")
	)
	(segment
		(start 102.505 65.11)
		(end 100.54 65.11)
		(width 0.25)
		(layer "F.Cu")
		(net 3)
		(uuid "4aa42f81-8efd-43a7-975e-ee0046a4a74d")
	)
	(segment
		(start 100.54 65.11)
		(end 100.33 65.32)
		(width 0.25)
		(layer "F.Cu")
		(net 3)
		(uuid "a17d9010-1ff7-426a-b876-8fb8e4c92830")
	)
	(segment
		(start 104.005 65.11)
		(end 104.005 66.81)
		(width 0.25)
		(layer "F.Cu")
		(net 4)
		(uuid "072a5c7d-48f3-4d56-b220-2a90fdb5892c")
	)
	(segment
		(start 100.0125 70.1675)
		(end 99.06 69.215)
		(width 0.4)
		(layer "F.Cu")
		(net 4)
		(uuid "2b8cc286-557e-41c0-a909-173a8793af34")
	)
	(segment
		(start 100.0125 72.51)
		(end 100.0125 70.1675)
		(width 0.4)
		(layer "F.Cu")
		(net 4)
		(uuid "33ed4102-ea45-4c16-8258-0d081f872424")
	)
	(segment
		(start 103.825 66.99)
		(end 108.2025 66.99)
		(width 0.4)
		(layer "F.Cu")
		(net 4)
		(uuid "403c8a5e-6444-4608-a7af-aee9a1617a84")
	)
	(segment
		(start 108.2025 66.99)
		(end 108.585 67.3725)
		(width 0.4)
		(layer "F.Cu")
		(net 4)
		(uuid "59074e7d-db95-4d55-ae72-d76e3b652175")
	)
	(segment
		(start 104.005 66.81)
		(end 103.825 66.99)
		(width 0.25)
		(layer "F.Cu")
		(net 4)
		(uuid "5aae6683-55a3-4c28-8136-9a56f3b24248")
	)
	(segment
		(start 108.585 67.3725)
		(end 108.585 70.19)
		(width 0.4)
		(layer "F.Cu")
		(net 4)
		(uuid "736b80f8-c381-4d48-8ec9-d1e46126f826")
	)
	(segment
		(start 99.38 66.99)
		(end 103.825 66.99)
		(width 0.4)
		(layer "F.Cu")
		(net 4)
		(uuid "76db9c78-526c-478d-93e9-7b30454c85c3")
	)
	(segment
		(start 99.06 69.215)
		(end 99.06 67.31)
		(width 0.4)
		(layer "F.Cu")
		(net 4)
		(uuid "9865f4d7-f378-4fea-b1cf-74f79b1320d1")
	)
	(segment
		(start 99.06 67.31)
		(end 99.38 66.99)
		(width 0.4)
		(layer "F.Cu")
		(net 4)
		(uuid "c3453797-038f-410e-8b65-3afa8660e93e")
	)
	(segment
		(start 104.14 74.6125)
		(end 104.4575 74.93)
		(width 0.25)
		(layer "F.Cu")
		(net 5)
		(uuid "3a6b7981-d071-4bcb-b2b6-f4cd84ef2e26")
	)
	(segment
		(start 103.005 69.51)
		(end 103.005 70.618604)
		(width 0.25)
		(layer "F.Cu")
		(net 5)
		(uuid "4448b0f1-fcc1-40b0-8765-caecedf83795")
	)
	(segment
		(start 104.14 71.753604)
		(end 104.14 74.6125)
		(width 0.25)
		(layer "F.Cu")
		(net 5)
		(uuid "59c5f921-d728-49a0-b2a5-d22ff31e6d42")
	)
	(segment
		(start 102.855 76.5325)
		(end 103.1875 76.2)
		(width 0.25)
		(layer "F.Cu")
		(net 5)
		(uuid "9e024202-ab77-4e0e-9f7f-b1786821815f")
	)
	(segment
		(start 102.855 77.975)
		(end 102.855 76.5325)
		(width 0.25)
		(layer "F.Cu")
		(net 5)
		(uuid "ebc09e60-0f79-4385-90c4-812ce954e0ba")
	)
	(segment
		(start 103.005 70.618604)
		(end 104.14 71.753604)
		(width 0.25)
		(layer "F.Cu")
		(net 5)
		(uuid "fac68097-9717-45dd-8816-152708b35d84")
	)
	(via
		(at 103.1875 76.2)
		(size 0.8)
		(drill 0.4)
		(layers "F.Cu" "B.Cu")
		(net 5)
		(uuid "43add202-e0a1-4b5d-a742-0d24ffdb920f")
	)
	(via
		(at 104.4575 74.93)
		(size 0.8)
		(drill 0.4)
		(layers "F.Cu" "B.Cu")
		(net 5)
		(uuid "6393cbc8-1d82-470b-a072-1c413b099531")
	)
	(segment
		(start 103.1875 76.2)
		(end 104.4575 74.93)
		(width 0.25)
		(layer "B.Cu")
		(net 5)
		(uuid "fcfebfcd-9f95-4862-87b0-e69866ea86c0")
	)
	(segment
		(start 103.505 71.755)
		(end 102.505 70.755)
		(width 0.25)
		(layer "F.Cu")
		(net 6)
		(uuid "129891e4-0b47-4f09-9317-ec65826061e7")
	)
	(segment
		(start 103.505 76.907805)
		(end 104.14 76.272805)
		(width 0.25)
		(layer "F.Cu")
		(net 6)
		(uuid "211bc27e-b6b3-48b4-bd41-36a031e257c4")
	)
	(segment
		(start 104.14 75.8825)
		(end 103.505 75.2475)
		(width 0.25)
		(layer "F.Cu")
		(net 6)
		(uuid "438c5534-a84c-4a5d-a527-aa93ba5a1fe2")
	)
	(segment
		(start 104.14 76.272805)
		(end 104.14 75.8825)
		(width 0.25)
		(layer "F.Cu")
		(net 6)
		(uuid "75d4ff5e-f14a-4e22-897a-6469d092e9e7")
	)
	(segment
		(start 103.505 77.975)
		(end 103.505 76.907805)
		(width 0.25)
		(layer "F.Cu")
		(net 6)
		(uuid "89502d99-d071-40be-9a53-3aa2eb71c6c6")
	)
	(segment
		(start 103.505 75.2475)
		(end 103.505 71.755)
		(width 0.25)
		(layer "F.Cu")
		(net 6)
		(uuid "d60ff659-8f87-43ef-8fb6-7a5e252ae9fd")
	)
	(segment
		(start 102.505 70.755)
		(end 102.505 69.51)
		(width 0.25)
		(layer "F.Cu")
		(net 6)
		(uuid "f6a68e67-fbd3-43f1-a4f8-54f5030c4010")
	)
	(segment
		(start 105.22 61.595)
		(end 105.22 59.055)
		(width 0.25)
		(layer "F.Cu")
		(net 9)
		(uuid "08ae7f4d-38a7-48bf-810b-d920555d02f0")
	)
	(segment
		(start 103.005 63.505)
		(end 103 63.5)
		(width 0.25)
		(layer "F.Cu")
		(net 9)
		(uuid "8eca904b-9638-46c5-81c2-119dc185c50f")
	)
	(segment
		(start 103.005 65.11)
		(end 103.005 63.505)
		(width 0.25)
		(layer "F.Cu")
		(net 9)
		(uuid "e2b8ab6d-e817-47b6-9371-8feaaa55d27b")
	)
	(via
		(at 103 63.5)
		(size 0.8)
		(drill 0.4)
		(layers "F.Cu" "B.Cu")
		(net 9)
		(uuid "6199ce3a-a2cf-41a4-86f7-de88253de4a4")
	)
	(segment
		(start 103.315 63.5)
		(end 105.22 61.595)
		(width 0.25)
		(layer "B.Cu")
		(net 9)
		(uuid "7c875d56-fb9e-48dd-a524-3bdf10bb0b35")
	)
	(segment
		(start 103 63.5)
		(end 103.315 63.5)
		(width 0.25)
		(layer "B.Cu")
		(net 9)
		(uuid "e6dc803c-5e43-44fc-ad81-af62fa2b23ba")
	)
	(segment
		(start 103.8 62.175)
		(end 103.22 61.595)
		(width 0.25)
		(layer "F.Cu")
		(net 10)
		(uuid "270de1a9-5137-48c5-9400-8b4605f6338f")
	)
	(segment
		(start 107.22 59.055)
		(end 106.2 60.075)
		(width 0.25)
		(layer "F.Cu")
		(net 10)
		(uuid "34651660-86f1-4c7d-bae7-84c5b1379715")
	)
	(segment
		(start 103.505 65.11)
		(end 103.505 64.095)
		(width 0.25)
		(layer "F.Cu")
		(net 10)
		(uuid "3c63880f-796c-4dba-9bbb-8d10c88dd5b4")
	)
	(segment
		(start 106.2 60.2)
		(end 106.22 60.22)
		(width 0.25)
		(layer "F.Cu")
		(net 10)
		(uuid "886efa2b-bddd-4d6f-8cdc-3f80cdb3e297")
	)
	(segment
		(start 103.8 63.8)
		(end 103.8 62.175)
		(width 0.25)
		(layer "F.Cu")
		(net 10)
		(uuid "91cf5d4f-f5c4-438d-ae43-01d7bde0d5a0")
	)
	(segment
		(start 103.505 64.095)
		(end 103.8 63.8)
		(width 0.25)
		(layer "F.Cu")
		(net 10)
		(uuid "945fb4cc-5d9b-494f-9a79-90aaef2b1df9")
	)
	(segment
		(start 104.6 63.8)
		(end 103.8 63.8)
		(width 0.25)
		(layer "F.Cu")
		(net 10)
		(uuid "d101cd96-297b-48ef-87cc-764d8f129a4f")
	)
	(segment
		(start 106.22 60.22)
		(end 106.22 62.18)
		(width 0.25)
		(layer "F.Cu")
		(net 10)
		(uuid "d647c514-e870-4eb4-ab65-0eb37c3a427f")
	)
	(segment
		(start 106.22 62.18)
		(end 104.6 63.8)
		(width 0.25)
		(layer "F.Cu")
		(net 10)
		(uuid "ef46147b-a8b5-4837-ad85-02b899bc6f0a")
	)
	(segment
		(start 106.2 60.075)
		(end 106.2 60.2)
		(width 0.25)
		(layer "F.Cu")
		(net 10)
		(uuid "fcd358c0-b0ec-4077-8456-4db78ad034b4")
	)
	(segment
		(start 109.22 63.4375)
		(end 108.585 64.0725)
		(width 0.4)
		(layer "F.Cu")
		(net 14)
		(uuid "05d7792c-ce23-4673-8012-e39c3deef15f")
	)
	(segment
		(start 109.22 61.595)
		(end 109.22 63.4375)
		(width 0.4)
		(layer "F.Cu")
		(net 14)
		(uuid "38f78beb-16f7-4412-a447-f2fbe307634e")
	)
	(segment
		(start 107.95 60.325)
		(end 102.49 60.325)
		(width 0.4)
		(layer "B.Cu")
		(net 14)
		(uuid "1df249fc-a268-47bb-8685-8a4131c4da16")
	)
	(segment
		(start 102.49 60.325)
		(end 101.22 59.055)
		(width 0.4)
		(layer "B.Cu")
		(net 14)
		(uuid "b90dd446-36dc-4f25-b73e-57ec891f4f68")
	)
	(segment
		(start 109.22 61.595)
		(end 107.95 60.325)
		(width 0.4)
		(layer "B.Cu")
		(net 14)
		(uuid "eeea14f5-8bc5-4dad-9cc8-a8398e1f5512")
	)
)
